
     Program PWSCF v.6.5 starts on 20Sep2020 at 11: 1:41 

     This program is part of the open-source Quantum ESPRESSO suite
     for quantum simulation of materials; please cite
         "P. Giannozzi et al., J. Phys.:Condens. Matter 21 395502 (2009);
         "P. Giannozzi et al., J. Phys.:Condens. Matter 29 465901 (2017);
         "P. Giannozzi et al., J. Chem. Phys. 152 154105 (2020);
          URL http://www.quantum-espresso.org", 
     in publications or presentations arising from this work. More details at
     http://www.quantum-espresso.org/quote

     Parallel version (MPI & OpenMP), running on       1 processor cores
     Number of MPI processes:                 1
     Threads/MPI process:                     1

     MPI processes distributed on     1 nodes
     Fft bands division:     nmany     =       1
     Reading input from small1.scf.in
     Message from routine read_cards :
     DEPRECATED: no units specified in CELL_PARAMETERS card

     Current dimensions of program PWSCF are:
     Max number of different atomic species (ntypx) = 10
     Max number of k-points (npk) =  40000
     Max angular momentum in pseudopotentials (lmaxx) =  3

     Subspace diagonalization in iterative solution of the eigenvalue problem:
     a serial algorithm will be used

     Message from routine setup:
     using ibrav=0 with symmetry is DISCOURAGED, use correct ibrav instead
 
     G-vector sticks info
     --------------------
     sticks:   dense  smooth     PW     G-vecs:    dense   smooth      PW
     Sum        2107    2107    595                64767    64767    9721
 
     Using Slab Decomposition
 


     bravais-lattice index     =            0
     lattice parameter (alat)  =       8.0174  a.u.
     unit-cell volume          =     364.4100 (a.u.)^3
     number of atoms/cell      =            2
     number of atomic types    =            2
     number of electrons       =        20.00
     number of Kohn-Sham states=           10
     kinetic-energy cutoff     =     120.0000  Ry
     charge density cutoff     =     480.0000  Ry
     convergence threshold     =      1.0E-10
     mixing beta               =       0.7000
     number of iterations used =            8  plain     mixing
     Exchange-correlation= SLA  PW   NOGX NOGC
                           (   1   4   0   0   0   0   0)

     GPU acceleration is ACTIVE.


     celldm(1)=   8.017428  celldm(2)=   0.000000  celldm(3)=   0.000000
     celldm(4)=   0.000000  celldm(5)=   0.000000  celldm(6)=   0.000000

     crystal axes: (cart. coord. in units of alat)
               a(1) = (   0.000000   0.707107   0.707107 )  
               a(2) = (   0.707107   0.000000   0.707107 )  
               a(3) = (   0.707107   0.707107   0.000000 )  

     reciprocal axes: (cart. coord. in units 2 pi/alat)
               b(1) = ( -0.707107  0.707107  0.707107 )  
               b(2) = (  0.707107 -0.707107  0.707107 )  
               b(3) = (  0.707107  0.707107 -0.707107 )  


     PseudoPot. # 1 for Li read from file:
     ../../pseudo/Li-s-high.oncvpsp.UPF
     MD5 check sum: 28ddc451d41a9eb941d57b14c6827fbc
     Pseudo is Norm-conserving, Zval =  3.0
     Generated using ONCVPSP code by D. R. Hamann
     Using radial grid of 1944 points,  4 beta functions with: 
                l(1) =   0
                l(2) =   0
                l(3) =   1
                l(4) =   1

     PseudoPot. # 2 for I  read from file:
     ../../pseudo/I-d.oncvpsp.UPF
     MD5 check sum: b44f48e92c08f84f8b769b3c07a76309
     Pseudo is Norm-conserving + core correction, Zval = 17.0
     Generated using ONCVPSP code by D. R. Hamann
     Using radial grid of 1182 points,  6 beta functions with: 
                l(1) =   0
                l(2) =   0
                l(3) =   1
                l(4) =   1
                l(5) =   2
                l(6) =   2

     atomic species   valence    mass     pseudopotential
        Li             3.00     6.94100     Li( 1.00)
        I             17.00   126.90000     I ( 1.00)

     48 Sym. Ops., with inversion, found



   Cartesian axes

     site n.     atom                  positions (alat units)
         1           Li  tau(   1) = (   0.7071068   0.7071068   0.7071068  )
         2           I   tau(   2) = (   0.0000000   0.0000000   0.0000000  )

     number of k points=    10
                       cart. coord. in units 2pi/alat
        k(    1) = (   0.0883883   0.0883883   0.0883883), wk =   0.0625000
        k(    2) = (   0.2651650   0.2651650  -0.0883883), wk =   0.1875000
        k(    3) = (  -0.2651650  -0.2651650   0.4419417), wk =   0.1875000
        k(    4) = (  -0.0883883  -0.0883883   0.2651650), wk =   0.1875000
        k(    5) = (   0.4419417   0.0883883   0.0883883), wk =   0.1875000
        k(    6) = (  -0.0883883  -0.4419417   0.6187184), wk =   0.3750000
        k(    7) = (   0.0883883  -0.2651650   0.4419417), wk =   0.3750000
        k(    8) = (  -0.6187184   0.0883883   0.0883883), wk =   0.1875000
        k(    9) = (   0.2651650   0.2651650   0.2651650), wk =   0.0625000
        k(   10) = (  -0.2651650  -0.2651650   0.7954951), wk =   0.1875000

     Dense  grid:    64767 G-vectors     FFT dimensions: (  60,  60,  60)

     Estimated max dynamical RAM per process >      69.00 MB

     Initial potential from superposition of free atoms

     starting charge   19.99528, renormalised to   20.00000
     Starting wfcs are   11 randomized atomic wfcs

     total cpu time spent up to now is        2.5 secs

     Self-consistent Calculation

     iteration #  1     ecut=   120.00 Ry     beta= 0.70
     Davidson diagonalization with overlap
     ethr =  1.00E-02,  avg # of iterations =  2.0

     Threshold (ethr) on eigenvalues was too large:
     Diagonalizing with lowered threshold

     Davidson diagonalization with overlap
     ethr =  3.65E-05,  avg # of iterations =  3.8

     total cpu time spent up to now is        3.3 secs

     total energy              =    -262.50891867 Ry
     estimated scf accuracy    <       0.00439577 Ry

     iteration #  2     ecut=   120.00 Ry     beta= 0.70
     Davidson diagonalization with overlap
     ethr =  2.20E-05,  avg # of iterations =  2.0

     total cpu time spent up to now is        3.5 secs

     total energy              =    -262.50945267 Ry
     estimated scf accuracy    <       0.00024010 Ry

     iteration #  3     ecut=   120.00 Ry     beta= 0.70
     Davidson diagonalization with overlap
     ethr =  1.20E-06,  avg # of iterations =  2.0

     total cpu time spent up to now is        3.8 secs

     total energy              =    -262.50949544 Ry
     estimated scf accuracy    <       0.00001667 Ry

     iteration #  4     ecut=   120.00 Ry     beta= 0.70
     Davidson diagonalization with overlap
     ethr =  8.34E-08,  avg # of iterations =  1.8

     total cpu time spent up to now is        4.0 secs

     total energy              =    -262.50949618 Ry
     estimated scf accuracy    <       0.00000068 Ry

     iteration #  5     ecut=   120.00 Ry     beta= 0.70
     Davidson diagonalization with overlap
     ethr =  3.39E-09,  avg # of iterations =  3.3

     total cpu time spent up to now is        4.3 secs

     total energy              =    -262.50949636 Ry
     estimated scf accuracy    <       0.00000006 Ry

     iteration #  6     ecut=   120.00 Ry     beta= 0.70
     Davidson diagonalization with overlap
     ethr =  3.24E-10,  avg # of iterations =  2.8

     total cpu time spent up to now is        4.6 secs

     total energy              =    -262.50949638 Ry
     estimated scf accuracy    <          9.6E-09 Ry

     iteration #  7     ecut=   120.00 Ry     beta= 0.70
     Davidson diagonalization with overlap
     ethr =  4.79E-11,  avg # of iterations =  2.0

     total cpu time spent up to now is        4.9 secs

     End of self-consistent calculation

          k = 0.0884 0.0884 0.0884 (  8039 PWs)   bands (ev):

   -40.1892 -39.3147 -39.3147 -39.3107 -39.3107 -39.3107  -7.5984   3.4554
     4.0522   4.0522

          k = 0.2652 0.2652-0.0884 (  8075 PWs)   bands (ev):

   -40.1890 -39.3147 -39.3146 -39.3106 -39.3105 -39.3104  -7.3086   1.9900
     3.3200   3.9945

          k =-0.2652-0.2652 0.4419 (  8099 PWs)   bands (ev):

   -40.1889 -39.3146 -39.3146 -39.3105 -39.3103 -39.3102  -7.1167   1.2020
     3.3557   3.6499

          k =-0.0884-0.0884 0.2652 (  8081 PWs)   bands (ev):

   -40.1891 -39.3147 -39.3146 -39.3107 -39.3105 -39.3105  -7.4337   2.6271
     3.6966   3.7768

          k = 0.4419 0.0884 0.0884 (  8092 PWs)   bands (ev):

   -40.1891 -39.3145 -39.3144 -39.3108 -39.3102 -39.3102  -7.1755   1.8315
     3.1122   3.2590

          k =-0.0884-0.4419 0.6187 (  8102 PWs)   bands (ev):

   -40.1891 -39.3145 -39.3143 -39.3106 -39.3102 -39.3100  -6.9719   1.5612
     2.2029   3.0381

          k = 0.0884-0.2652 0.4419 (  8089 PWs)   bands (ev):

   -40.1890 -39.3146 -39.3145 -39.3106 -39.3103 -39.3102  -7.1180   1.5916
     2.7572   3.5302

          k =-0.6187 0.0884 0.0884 (  8085 PWs)   bands (ev):

   -40.1892 -39.3144 -39.3143 -39.3109 -39.3100 -39.3100  -6.9704   1.3108
     2.6659   2.9841

          k = 0.2652 0.2652 0.2652 (  8054 PWs)   bands (ev):

   -40.1889 -39.3146 -39.3146 -39.3105 -39.3104 -39.3104  -7.2306   1.4082
     3.8589   3.8589

          k =-0.2652-0.2652 0.7955 (  8092 PWs)   bands (ev):

   -40.1890 -39.3145 -39.3144 -39.3105 -39.3103 -39.3102  -7.0336   1.5057
     2.3278   3.4955

     highest occupied level (ev):     4.0522

!    total energy              =    -262.50949638 Ry
     estimated scf accuracy    <          2.0E-11 Ry

     The total energy is the sum of the following terms:
     one-electron contribution =    -138.92310752 Ry
     hartree contribution      =      70.43815955 Ry
     xc contribution           =     -63.71979688 Ry
     ewald contribution        =    -130.30475153 Ry

     convergence has been achieved in   7 iterations

     Writing output data file ./pwscf.save/
 
     init_run     :      0.77s CPU      1.42s WALL (       1 calls)
     electrons    :      1.63s CPU      2.40s WALL (       1 calls)

     Called by init_run:
     wfcinit      :      0.57s CPU      1.18s WALL (       1 calls)
                                        1.18s GPU  (       1 calls)
     potinit      :      0.05s CPU      0.06s WALL (       1 calls)
     hinit0       :      0.09s CPU      0.10s WALL (       1 calls)

     Called by electrons:
     c_bands      :      1.19s CPU      1.82s WALL (       8 calls)
     sum_band     :      0.28s CPU      0.35s WALL (       8 calls)
                                        0.35s GPU  (       8 calls)
     v_of_rho     :      0.06s CPU      0.09s WALL (       8 calls)
     mix_rho      :      0.08s CPU      0.10s WALL (       8 calls)

     Called by c_bands:
     init_us_2    :      0.06s CPU      0.11s WALL (     170 calls)
                                        0.11s GPU  (     170 calls)
     cegterg      :      0.98s CPU      1.45s WALL (      80 calls)

     Called by *egterg:
     cdiaghg      :      0.30s CPU      0.63s WALL (     267 calls)
                                        0.63s GPU  (     267 calls)
     h_psi        :      0.94s CPU      1.55s WALL (     287 calls)
                                        1.54s GPU  (     287 calls)
     g_psi        :      0.00s CPU      0.01s WALL (     197 calls)
                                        0.01s GPU  (     197 calls)

     Called by h_psi:
     h_psi:calbec :      0.13s CPU      0.40s WALL (     287 calls)
                                        0.39s GPU  (     287 calls)
     vloc_psi     :      0.73s CPU      1.09s WALL (     287 calls)
                                        1.08s GPU  (     287 calls)
     add_vuspsi   :      0.02s CPU      0.05s WALL (     287 calls)
                                        0.05s GPU  (     287 calls)

     General routines
     calbec       :      0.13s CPU      0.35s WALL (     287 calls)
     fft          :      0.06s CPU      0.07s WALL (      25 calls)
     ffts         :      0.02s CPU      0.02s WALL (       8 calls)
     fftw         :      0.16s CPU      1.18s WALL (     654 calls)
                                        0.99s GPU  (     654 calls)
 
     Parallel routines
 
     PWSCF        :      3.24s CPU      5.01s WALL

 
   This run was terminated on:  11: 1:46  20Sep2020            

=------------------------------------------------------------------------------=
   JOB DONE.
=------------------------------------------------------------------------------=
