 1029 reduced
 periodic   37.95477 37.95477 37.95477    
U   0.071428571428571   0.071428571428571   0.071428571428571 
U   0.928571428571429   0.785714285714286   0.071428571428571 
U   0.642857142857143   0.357142857142857   0.642857142857143 
U   0.928571428571428   0.357142857142857   0.500000000000000 
U   0.928571428571428   0.357142857142857   0.357142857142857 
U   0.214285714285714   0.500000000000000   0.357142857142857 
U   0.500000000000000   0.928571428571428   0.642857142857143 
U   0.214285714285714   0.071428571428571   0.642857142857143 
U   0.500000000000000   0.785714285714286   0.071428571428571 
U   0.642857142857143   0.071428571428571   0.357142857142857 
U   0.642857142857143   0.214285714285714   0.500000000000000 
U   0.214285714285714   0.500000000000000   0.071428571428571 
U   0.500000000000000   0.642857142857143   0.785714285714286 
U   0.357142857142857   0.214285714285714   0.785714285714286 
U   0.785714285714286   0.928571428571429   0.071428571428571 
U   0.500000000000000   0.071428571428571   0.071428571428571 
U   0.500000000000000   0.785714285714286   0.785714285714286 
U   0.071428571428571   0.214285714285714   0.642857142857143 
U   0.642857142857143   0.071428571428571   0.500000000000000 
U   0.071428571428571   0.785714285714286   0.785714285714286 
U   0.928571428571429   0.071428571428571   0.214285714285714 
U   0.928571428571428   0.928571428571428   0.642857142857143 
U   0.500000000000000   0.357142857142857   0.500000000000000 
U   0.071428571428571   0.500000000000000   0.785714285714286 
U   0.928571428571428   0.642857142857143   0.357142857142857 
U   0.214285714285714   0.642857142857143   0.642857142857143 
U   0.214285714285714   0.357142857142857   0.500000000000000 
U   0.928571428571428   0.500000000000000   0.357142857142857 
U   0.357142857142857   0.214285714285714   0.071428571428571 
U   0.500000000000000   0.642857142857143   0.214285714285714 
U   0.357142857142857   0.214285714285714   0.357142857142857 
U   0.500000000000000   0.214285714285714   0.357142857142857 
U   0.642857142857143   0.642857142857143   0.214285714285714 
U   0.214285714285714   0.357142857142857   0.214285714285714 
U   0.500000000000000   0.642857142857143   0.928571428571428 
U   0.071428571428571   0.071428571428571   0.785714285714286 
U   0.642857142857143   0.928571428571429   0.214285714285714 
U   0.928571428571428   0.785714285714286   0.785714285714286 
U   0.500000000000000   0.214285714285714   0.642857142857143 
U   0.785714285714286   0.357142857142857   0.642857142857143 
U   0.500000000000000   0.214285714285714   0.500000000000000 
U   0.785714285714286   0.642857142857143   0.357142857142857 
U   0.357142857142857   0.071428571428571   0.214285714285714 
U   0.071428571428571   0.357142857142857   0.214285714285714 
U   0.500000000000000   0.928571428571428   0.214285714285714 
U   0.500000000000000   0.500000000000000   0.357142857142857 
U   0.357142857142857   0.785714285714286   0.928571428571428 
U   0.357142857142857   0.357142857142857   0.357142857142857 
U   0.785714285714285   0.214285714285714   0.357142857142857 
U   0.500000000000000   0.214285714285714   0.785714285714286 
U   0.071428571428571   0.357142857142857   0.500000000000000 
U   0.214285714285714   0.642857142857143   0.500000000000000 
U   0.785714285714286   0.500000000000000   0.500000000000000 
U   0.214285714285714   0.214285714285714   0.214285714285714 
U   0.928571428571428   0.357142857142857   0.071428571428572 
U   0.214285714285714   0.928571428571428   0.928571428571428 
U   0.642857142857143   0.357142857142857   0.071428571428571 
U   0.642857142857143   0.928571428571428   0.357142857142857 
U   0.642857142857143   0.642857142857143   0.785714285714286 
U   0.785714285714286   0.785714285714286   0.928571428571428 
U   0.214285714285714   0.500000000000000   0.642857142857143 
U   0.642857142857143   0.500000000000000   0.500000000000000 
U   0.214285714285714   0.928571428571428   0.214285714285714 
U   0.642857142857143   0.928571428571429   0.071428571428571 
U   0.071428571428571   0.785714285714286   0.214285714285714 
U   0.500000000000000   0.500000000000000   0.071428571428571 
U   0.500000000000000   0.928571428571428   0.357142857142857 
U   0.214285714285714   0.071428571428571   0.357142857142857 
U   0.214285714285714   0.071428571428571   0.500000000000000 
U   0.642857142857143   0.214285714285714   0.928571428571429 
U   0.642857142857143   0.214285714285714   0.214285714285714 
U   0.785714285714286   0.642857142857143   0.500000000000000 
U   0.642857142857143   0.928571428571428   0.928571428571428 
U   0.214285714285714   0.357142857142857   0.785714285714286 
U   0.642857142857143   0.785714285714286   0.500000000000000 
U   0.785714285714286   0.071428571428571   0.785714285714286 
U   0.214285714285714   0.785714285714286   0.357142857142857 
U   0.785714285714286   0.214285714285714   0.785714285714286 
U   0.071428571428571   0.214285714285714   0.357142857142857 
U   0.357142857142857   0.071428571428571   0.642857142857143 
U   0.928571428571428   0.357142857142857   0.928571428571428 
U   0.642857142857143   0.214285714285714   0.785714285714286 
U   0.928571428571428   0.928571428571428   0.357142857142857 
U   0.500000000000000   0.357142857142857   0.214285714285714 
U   0.214285714285714   0.214285714285714   0.928571428571428 
U   0.642857142857143   0.357142857142857   0.500000000000000 
U   0.357142857142857   0.071428571428571   0.928571428571429 
U   0.357142857142857   0.928571428571428   0.500000000000000 
U   0.071428571428571   0.071428571428571   0.500000000000000 
U   0.785714285714286   0.357142857142857   0.785714285714286 
U   0.785714285714286   0.785714285714286   0.642857142857143 
U   0.928571428571428   0.785714285714286   0.500000000000000 
U   0.357142857142857   0.500000000000000   0.214285714285714 
U   0.500000000000000   0.500000000000000   0.642857142857143 
U   0.071428571428572   0.928571428571428   0.357142857142857 
U   0.928571428571429   0.642857142857143   0.214285714285714 
U   0.928571428571428   0.357142857142857   0.214285714285714 
U   0.214285714285714   0.214285714285714   0.642857142857143 
U   0.357142857142857   0.785714285714286   0.642857142857143 
U   0.928571428571429   0.642857142857143   0.500000000000000 
U   0.785714285714286   0.214285714285714   0.500000000000000 
U   0.785714285714286   0.928571428571428   0.500000000000000 
U   0.071428571428571   0.928571428571429   0.071428571428571 
U   0.642857142857143   0.928571428571429   0.642857142857143 
U   0.500000000000000   0.785714285714286   0.642857142857143 
U   0.214285714285714   0.928571428571428   0.500000000000000 
U   0.642857142857143   0.785714285714286   0.071428571428571 
U   0.071428571428571   0.785714285714286   0.500000000000000 
U   0.928571428571429   0.642857142857143   0.785714285714286 
U   0.357142857142857   0.357142857142857   0.500000000000000 
U   0.214285714285714   0.928571428571429   0.642857142857143 
U   0.928571428571428   0.500000000000000   0.785714285714286 
U   0.357142857142857   0.214285714285714   0.500000000000000 
U   0.928571428571428   0.071428571428572   0.928571428571428 
U   0.928571428571428   0.642857142857143   0.928571428571428 
U   0.642857142857143   0.500000000000000   0.928571428571428 
U   0.785714285714286   0.500000000000000   0.928571428571428 
U   0.071428571428572   0.928571428571428   0.500000000000000 
U   0.785714285714286   0.357142857142857   0.357142857142857 
U   0.214285714285714   0.071428571428571   0.071428571428571 
U   0.357142857142857   0.928571428571428   0.642857142857143 
U   0.214285714285714   0.785714285714286   0.642857142857143 
U   0.071428571428571   0.642857142857143   0.642857142857143 
U   0.357142857142857   0.500000000000000   0.928571428571428 
U   0.071428571428571   0.214285714285714   0.785714285714286 
U   0.214285714285714   0.642857142857143   0.928571428571429 
U   0.928571428571428   0.214285714285714   0.214285714285714 
U   0.785714285714286   0.642857142857143   0.785714285714286 
U   0.071428571428571   0.642857142857143   0.357142857142857 
U   0.500000000000000   0.071428571428571   0.785714285714286 
U   0.642857142857143   0.500000000000000   0.357142857142857 
U   0.071428571428571   0.214285714285714   0.071428571428571 
U   0.642857142857143   0.785714285714286   0.214285714285714 
U   0.357142857142857   0.642857142857143   0.071428571428571 
U   0.071428571428572   0.928571428571429   0.785714285714286 
U   0.642857142857143   0.071428571428571   0.071428571428571 
U   0.500000000000000   0.642857142857143   0.500000000000000 
U   0.357142857142857   0.785714285714286   0.785714285714286 
U   0.642857142857143   0.785714285714286   0.785714285714286 
U   0.071428571428571   0.500000000000000   0.500000000000000 
U   0.357142857142857   0.357142857142857   0.928571428571428 
U   0.357142857142857   0.928571428571429   0.071428571428571 
U   0.928571428571428   0.214285714285714   0.785714285714286 
U   0.214285714285714   0.214285714285714   0.357142857142857 
U   0.357142857142857   0.928571428571428   0.214285714285714 
U   0.071428571428571   0.071428571428571   0.214285714285714 
U   0.357142857142857   0.214285714285714   0.928571428571428 
U   0.071428571428572   0.785714285714286   0.928571428571429 
U   0.642857142857143   0.642857142857143   0.500000000000000 
U   0.500000000000000   0.214285714285714   0.071428571428571 
U   0.214285714285714   0.785714285714286   0.071428571428571 
U   0.928571428571428   0.928571428571428   0.928571428571428 
U   0.642857142857143   0.071428571428571   0.928571428571429 
U   0.500000000000000   0.928571428571428   0.785714285714286 
U   0.214285714285714   0.071428571428571   0.785714285714286 
U   0.214285714285714   0.500000000000000   0.928571428571428 
U   0.500000000000000   0.500000000000000   0.500000000000000 
U   0.785714285714286   0.642857142857143   0.071428571428571 
U   0.357142857142857   0.071428571428571   0.357142857142857 
U   0.642857142857143   0.500000000000000   0.071428571428571 
U   0.214285714285714   0.928571428571428   0.785714285714286 
U   0.928571428571428   0.500000000000000   0.071428571428572 
U   0.500000000000000   0.357142857142857   0.071428571428571 
U   0.785714285714286   0.357142857142857   0.071428571428571 
U   0.500000000000000   0.071428571428571   0.214285714285714 
U   0.500000000000000   0.071428571428571   0.642857142857143 
U   0.500000000000000   0.785714285714286   0.928571428571428 
U   0.928571428571429   0.214285714285714   0.071428571428571 
U   0.785714285714286   0.785714285714286   0.214285714285714 
U   0.642857142857143   0.071428571428571   0.642857142857143 
U   0.785714285714286   0.071428571428571   0.357142857142857 
U   0.928571428571428   0.928571428571428   0.785714285714286 
U   0.500000000000000   0.357142857142857   0.642857142857143 
U   0.357142857142857   0.928571428571428   0.928571428571428 
U   0.785714285714286   0.785714285714286   0.357142857142857 
U   0.357142857142857   0.214285714285714   0.214285714285714 
U   0.785714285714286   0.785714285714286   0.500000000000000 
U   0.071428571428571   0.642857142857143   0.928571428571429 
U   0.785714285714286   0.071428571428571   0.642857142857143 
U   0.785714285714286   0.500000000000000   0.214285714285714 
U   0.071428571428571   0.071428571428571   0.928571428571429 
U   0.500000000000000   0.642857142857143   0.071428571428571 
U   0.500000000000000   0.214285714285714   0.214285714285714 
U   0.928571428571428   0.785714285714286   0.928571428571428 
U   0.214285714285714   0.785714285714286   0.500000000000000 
U   0.214285714285714   0.357142857142857   0.071428571428571 
U   0.500000000000000   0.642857142857143   0.642857142857143 
U   0.071428571428571   0.785714285714286   0.357142857142857 
U   0.928571428571428   0.357142857142857   0.642857142857143 
U   0.071428571428571   0.642857142857143   0.071428571428571 
U   0.785714285714285   0.214285714285714   0.214285714285714 
U   0.500000000000000   0.928571428571428   0.071428571428572 
U   0.071428571428571   0.785714285714286   0.642857142857143 
U   0.357142857142857   0.785714285714286   0.071428571428571 
U   0.928571428571429   0.071428571428571   0.071428571428571 
U   0.357142857142857   0.357142857142857   0.785714285714286 
U   0.500000000000000   0.071428571428571   0.357142857142857 
U   0.071428571428571   0.500000000000000   0.071428571428571 
U   0.357142857142857   0.642857142857143   0.642857142857143 
U   0.785714285714286   0.500000000000000   0.642857142857143 
U   0.071428571428571   0.500000000000000   0.214285714285714 
U   0.928571428571428   0.785714285714286   0.214285714285714 
U   0.928571428571428   0.071428571428572   0.357142857142857 
U   0.642857142857143   0.357142857142857   0.214285714285714 
U   0.214285714285714   0.500000000000000   0.785714285714286 
U   0.785714285714286   0.357142857142857   0.500000000000000 
U   0.642857142857143   0.642857142857143   0.357142857142857 
U   0.214285714285714   0.071428571428571   0.214285714285714 
U   0.642857142857143   0.642857142857143   0.642857142857143 
U   0.071428571428571   0.357142857142857   0.357142857142857 
U   0.500000000000000   0.785714285714286   0.214285714285714 
U   0.214285714285714   0.928571428571429   0.071428571428571 
U   0.642857142857143   0.214285714285714   0.357142857142857 
U   0.071428571428571   0.785714285714286   0.071428571428571 
U   0.357142857142857   0.785714285714286   0.214285714285714 
U   0.357142857142857   0.500000000000000   0.500000000000000 
U   0.071428571428571   0.642857142857143   0.785714285714286 
U   0.785714285714286   0.214285714285714   0.928571428571429 
U   0.071428571428571   0.214285714285714   0.500000000000000 
U   0.500000000000000   0.071428571428571   0.500000000000000 
U   0.928571428571429   0.214285714285714   0.642857142857143 
U   0.642857142857143   0.642857142857143   0.928571428571429 
U   0.500000000000000   0.642857142857143   0.357142857142857 
U   0.071428571428571   0.357142857142857   0.642857142857143 
U   0.928571428571429   0.928571428571428   0.500000000000000 
U   0.500000000000000   0.357142857142857   0.357142857142857 
U   0.214285714285714   0.785714285714286   0.214285714285714 
U   0.214285714285714   0.357142857142857   0.357142857142857 
U   0.928571428571428   0.500000000000000   0.214285714285714 
U   0.928571428571429   0.785714285714286   0.642857142857143 
U   0.071428571428572   0.357142857142857   0.928571428571428 
U   0.642857142857143   0.357142857142857   0.928571428571428 
U   0.071428571428571   0.071428571428571   0.642857142857143 
U   0.928571428571429   0.071428571428571   0.785714285714286 
U   0.357142857142857   0.500000000000000   0.357142857142857 
U   0.642857142857143   0.928571428571428   0.500000000000000 
U   0.357142857142857   0.785714285714286   0.357142857142857 
U   0.500000000000000   0.928571428571428   0.500000000000000 
U   0.071428571428571   0.928571428571429   0.214285714285714 
U   0.500000000000000   0.500000000000000   0.214285714285714 
U   0.785714285714285   0.642857142857143   0.214285714285714 
U   0.357142857142857   0.071428571428571   0.071428571428571 
U   0.071428571428571   0.500000000000000   0.357142857142857 
U   0.500000000000000   0.500000000000000   0.928571428571428 
U   0.500000000000000   0.785714285714286   0.500000000000000 
U   0.642857142857143   0.214285714285714   0.642857142857143 
U   0.071428571428571   0.642857142857143   0.214285714285714 
U   0.785714285714285   0.928571428571429   0.642857142857143 
U   0.214285714285714   0.642857142857143   0.357142857142857 
U   0.357142857142857   0.642857142857143   0.500000000000000 
U   0.785714285714286   0.500000000000000   0.357142857142857 
U   0.214285714285714   0.214285714285714   0.071428571428571 
U   0.928571428571429   0.357142857142857   0.785714285714286 
U   0.785714285714285   0.642857142857143   0.928571428571429 
U   0.357142857142857   0.071428571428571   0.785714285714286 
U   0.642857142857143   0.500000000000000   0.642857142857143 
U   0.357142857142857   0.642857142857143   0.928571428571428 
U   0.785714285714286   0.071428571428571   0.071428571428571 
U   0.928571428571428   0.214285714285714   0.500000000000000 
U   0.642857142857143   0.071428571428571   0.785714285714286 
U   0.357142857142857   0.214285714285714   0.642857142857143 
U   0.928571428571429   0.500000000000000   0.928571428571428 
U   0.214285714285714   0.500000000000000   0.500000000000000 
U   0.928571428571428   0.071428571428572   0.500000000000000 
U   0.928571428571428   0.642857142857143   0.071428571428571 
U   0.928571428571428   0.071428571428571   0.642857142857143 
U   0.071428571428571   0.357142857142857   0.071428571428571 
U   0.500000000000000   0.214285714285714   0.928571428571428 
U   0.928571428571429   0.214285714285714   0.928571428571428 
U   0.214285714285714   0.785714285714286   0.928571428571428 
U   0.642857142857143   0.214285714285714   0.071428571428571 
U   0.642857142857143   0.357142857142857   0.785714285714286 
U   0.785714285714286   0.928571428571429   0.214285714285714 
U   0.642857142857143   0.928571428571429   0.785714285714286 
U   0.071428571428571   0.642857142857143   0.500000000000000 
U   0.214285714285714   0.357142857142857   0.642857142857143 
U   0.500000000000000   0.785714285714286   0.357142857142857 
U   0.071428571428571   0.214285714285714   0.214285714285714 
U   0.214285714285714   0.642857142857143   0.071428571428571 
U   0.928571428571429   0.642857142857143   0.642857142857143 
U   0.214285714285714   0.642857142857143   0.214285714285714 
U   0.928571428571429   0.928571428571428   0.214285714285714 
U   0.642857142857143   0.071428571428571   0.214285714285714 
U   0.642857142857143   0.785714285714286   0.928571428571429 
U   0.071428571428571   0.500000000000000   0.642857142857143 
U   0.785714285714286   0.785714285714286   0.785714285714286 
U   0.785714285714286   0.928571428571428   0.785714285714286 
U   0.642857142857143   0.500000000000000   0.785714285714286 
U   0.785714285714286   0.357142857142857   0.928571428571428 
U   0.357142857142857   0.357142857142857   0.642857142857143 
U   0.357142857142857   0.928571428571428   0.357142857142857 
U   0.071428571428571   0.071428571428571   0.357142857142857 
U   0.500000000000000   0.500000000000000   0.785714285714286 
U   0.500000000000000   0.071428571428572   0.928571428571428 
U   0.928571428571429   0.785714285714286   0.357142857142857 
U   0.357142857142857   0.500000000000000   0.071428571428571 
U   0.071428571428571   0.928571428571429   0.642857142857143 
U   0.500000000000000   0.928571428571428   0.928571428571428 
U   0.071428571428571   0.357142857142857   0.785714285714286 
U   0.357142857142857   0.785714285714286   0.500000000000000 
U   0.785714285714285   0.214285714285714   0.642857142857143 
U   0.071428571428572   0.928571428571428   0.928571428571428 
U   0.357142857142857   0.642857142857143   0.785714285714286 
U   0.928571428571428   0.214285714285714   0.357142857142857 
U   0.785714285714286   0.928571428571428   0.357142857142857 
U   0.357142857142857   0.357142857142857   0.214285714285714 
U   0.928571428571428   0.928571428571428   0.071428571428572 
U   0.214285714285714   0.071428571428571   0.928571428571429 
U   0.785714285714286   0.214285714285714   0.071428571428571 
U   0.071428571428571   0.214285714285714   0.928571428571429 
U   0.357142857142857   0.642857142857143   0.357142857142857 
U   0.642857142857143   0.785714285714286   0.357142857142857 
U   0.357142857142857   0.642857142857143   0.214285714285714 
U   0.500000000000000   0.357142857142857   0.785714285714286 
U   0.785714285714286   0.071428571428571   0.928571428571429 
U   0.928571428571429   0.500000000000000   0.642857142857143 
U   0.214285714285714   0.500000000000000   0.214285714285714 
U   0.785714285714286   0.928571428571428   0.928571428571428 
U   0.642857142857143   0.785714285714286   0.642857142857143 
U   0.214285714285714   0.928571428571428   0.357142857142857 
U   0.785714285714285   0.357142857142857   0.214285714285714 
U   0.357142857142857   0.928571428571428   0.785714285714286 
U   0.214285714285714   0.785714285714286   0.785714285714286 
U   0.357142857142857   0.500000000000000   0.642857142857143 
U   0.214285714285714   0.357142857142857   0.928571428571428 
U   0.357142857142857   0.500000000000000   0.785714285714286 
U   0.785714285714285   0.500000000000000   0.071428571428571 
U   0.785714285714286   0.071428571428571   0.214285714285714 
U   0.500000000000000   0.357142857142857   0.928571428571428 
U   0.214285714285714   0.214285714285714   0.785714285714286 
U   0.785714285714286   0.642857142857143   0.642857142857143 
U   0.357142857142857   0.071428571428571   0.500000000000000 
U   0.642857142857143   0.500000000000000   0.214285714285714 
U   0.071428571428572   0.500000000000000   0.928571428571428 
U   0.214285714285714   0.642857142857143   0.785714285714286 
U   0.785714285714286   0.785714285714286   0.071428571428571 
U   0.642857142857143   0.642857142857143   0.071428571428571 
U   0.785714285714286   0.500000000000000   0.785714285714286 
U   0.214285714285714   0.214285714285714   0.500000000000000 
U   0.357142857142857   0.357142857142857   0.071428571428571 
U   0.928571428571428   0.500000000000000   0.500000000000000 
U   0.785714285714285   0.071428571428571   0.500000000000000 
U   0.642857142857143   0.357142857142857   0.357142857142857 
O   0.035714285714286   0.035714285714286   0.035714285714286 
O   0.107142857142857   0.107142857142857   0.107142857142857 
O   0.892857142857143   0.750000000000000   0.035714285714286 
O   0.607142857142857   0.321428571428571   0.607142857142857 
O   0.892857142857143   0.321428571428571   0.464285714285714 
O   0.892857142857143   0.321428571428571   0.321428571428571 
O   0.178571428571429   0.464285714285714   0.321428571428571 
O   0.464285714285714   0.892857142857143   0.607142857142857 
O   0.178571428571429   0.035714285714286   0.607142857142857 
O   0.464285714285714   0.750000000000000   0.035714285714286 
O   0.607142857142857   0.035714285714286   0.321428571428571 
O   0.607142857142857   0.178571428571429   0.464285714285714 
O   0.178571428571428   0.464285714285714   0.035714285714286 
O   0.464285714285714   0.607142857142857   0.750000000000000 
O   0.321428571428571   0.178571428571429   0.750000000000000 
O   0.750000000000000   0.892857142857143   0.035714285714286 
O   0.464285714285714   0.035714285714286   0.035714285714286 
O   0.464285714285714   0.750000000000000   0.750000000000000 
O   0.035714285714286   0.178571428571429   0.607142857142857 
O   0.607142857142857   0.035714285714286   0.464285714285714 
O   0.035714285714286   0.750000000000000   0.750000000000000 
O   0.892857142857143   0.035714285714286   0.178571428571429 
O   0.892857142857143   0.892857142857143   0.607142857142857 
O   0.464285714285714   0.321428571428571   0.464285714285714 
O   0.035714285714286   0.464285714285714   0.750000000000000 
O   0.892857142857143   0.607142857142857   0.321428571428571 
O   0.178571428571429   0.607142857142857   0.607142857142857 
O   0.178571428571429   0.321428571428571   0.464285714285714 
O   0.892857142857143   0.464285714285714   0.321428571428571 
O   0.321428571428571   0.178571428571429   0.035714285714286 
O   0.464285714285714   0.607142857142857   0.178571428571429 
O   0.321428571428571   0.178571428571429   0.321428571428571 
O   0.464285714285714   0.178571428571429   0.321428571428572 
O   0.607142857142857   0.607142857142857   0.178571428571429 
O   0.178571428571428   0.321428571428572   0.178571428571429 
O   0.464285714285714   0.607142857142857   0.892857142857143 
O   0.035714285714286   0.035714285714286   0.750000000000000 
O   0.607142857142857   0.892857142857143   0.178571428571429 
O   0.892857142857143   0.750000000000000   0.750000000000000 
O   0.464285714285714   0.178571428571429   0.607142857142857 
O   0.750000000000000   0.321428571428571   0.607142857142857 
O   0.464285714285714   0.178571428571429   0.464285714285714 
O   0.750000000000000   0.607142857142857   0.321428571428571 
O   0.321428571428571   0.035714285714286   0.178571428571429 
O   0.035714285714286   0.321428571428572   0.178571428571429 
O   0.464285714285714   0.892857142857143   0.178571428571429 
O   0.464285714285714   0.464285714285714   0.321428571428571 
O   0.321428571428571   0.750000000000000   0.892857142857143 
O   0.321428571428571   0.321428571428571   0.321428571428571 
O   0.750000000000000   0.178571428571429   0.321428571428572 
O   0.464285714285714   0.178571428571429   0.750000000000000 
O   0.035714285714286   0.321428571428571   0.464285714285714 
O   0.178571428571428   0.607142857142857   0.464285714285714 
O   0.750000000000000   0.464285714285714   0.464285714285714 
O   0.178571428571428   0.178571428571429   0.178571428571429 
O   0.892857142857143   0.321428571428571   0.035714285714286 
O   0.178571428571429   0.892857142857143   0.892857142857143 
O   0.607142857142857   0.321428571428571   0.035714285714286 
O   0.607142857142857   0.892857142857143   0.321428571428571 
O   0.607142857142857   0.607142857142857   0.750000000000000 
O   0.750000000000000   0.750000000000000   0.892857142857143 
O   0.178571428571428   0.464285714285714   0.607142857142857 
O   0.607142857142857   0.464285714285714   0.464285714285714 
O   0.178571428571428   0.892857142857143   0.178571428571429 
O   0.607142857142857   0.892857142857143   0.035714285714286 
O   0.035714285714286   0.750000000000000   0.178571428571429 
O   0.464285714285714   0.464285714285714   0.035714285714286 
O   0.464285714285714   0.892857142857143   0.321428571428571 
O   0.178571428571428   0.035714285714286   0.321428571428572 
O   0.178571428571428   0.035714285714286   0.464285714285714 
O   0.607142857142857   0.178571428571429   0.892857142857143 
O   0.607142857142857   0.178571428571429   0.178571428571429 
O   0.750000000000000   0.607142857142857   0.464285714285714 
O   0.607142857142857   0.892857142857143   0.892857142857143 
O   0.178571428571428   0.321428571428571   0.750000000000000 
O   0.607142857142857   0.750000000000000   0.464285714285714 
O   0.750000000000000   0.035714285714286   0.750000000000000 
O   0.178571428571428   0.750000000000000   0.321428571428571 
O   0.750000000000000   0.178571428571428   0.750000000000000 
O   0.035714285714286   0.178571428571429   0.321428571428572 
O   0.321428571428571   0.035714285714286   0.607142857142857 
O   0.892857142857143   0.321428571428571   0.892857142857143 
O   0.607142857142857   0.178571428571429   0.750000000000000 
O   0.892857142857143   0.892857142857143   0.321428571428571 
O   0.464285714285714   0.321428571428572   0.178571428571429 
O   0.178571428571428   0.178571428571429   0.892857142857143 
O   0.607142857142857   0.321428571428571   0.464285714285714 
O   0.321428571428571   0.035714285714286   0.892857142857143 
O   0.321428571428572   0.892857142857143   0.464285714285714 
O   0.035714285714286   0.035714285714286   0.464285714285714 
O   0.750000000000000   0.321428571428571   0.750000000000000 
O   0.750000000000000   0.750000000000000   0.607142857142857 
O   0.892857142857143   0.750000000000000   0.464285714285714 
O   0.321428571428571   0.464285714285714   0.178571428571429 
O   0.464285714285714   0.464285714285714   0.607142857142857 
O   0.035714285714286   0.892857142857143   0.321428571428571 
O   0.892857142857143   0.607142857142857   0.178571428571429 
O   0.892857142857143   0.321428571428571   0.178571428571429 
O   0.178571428571429   0.178571428571429   0.607142857142857 
O   0.321428571428572   0.750000000000000   0.607142857142857 
O   0.892857142857143   0.607142857142857   0.464285714285714 
O   0.750000000000000   0.178571428571428   0.464285714285714 
O   0.750000000000000   0.892857142857143   0.464285714285714 
O   0.035714285714286   0.892857142857143   0.035714285714286 
O   0.607142857142857   0.892857142857143   0.607142857142857 
O   0.464285714285714   0.750000000000000   0.607142857142857 
O   0.178571428571429   0.892857142857143   0.464285714285714 
O   0.607142857142857   0.750000000000000   0.035714285714286 
O   0.035714285714286   0.750000000000000   0.464285714285714 
O   0.892857142857143   0.607142857142857   0.750000000000000 
O   0.321428571428571   0.321428571428571   0.464285714285714 
O   0.178571428571429   0.892857142857143   0.607142857142857 
O   0.892857142857143   0.464285714285714   0.750000000000000 
O   0.321428571428571   0.178571428571429   0.464285714285714 
O   0.892857142857143   0.035714285714286   0.892857142857143 
O   0.892857142857143   0.607142857142857   0.892857142857143 
O   0.607142857142857   0.464285714285714   0.892857142857143 
O   0.750000000000000   0.464285714285714   0.892857142857143 
O   0.035714285714286   0.892857142857143   0.464285714285714 
O   0.750000000000000   0.321428571428571   0.321428571428571 
O   0.178571428571429   0.035714285714286   0.035714285714286 
O   0.321428571428571   0.892857142857143   0.607142857142857 
O   0.178571428571429   0.750000000000000   0.607142857142857 
O   0.035714285714286   0.607142857142857   0.607142857142857 
O   0.321428571428572   0.464285714285714   0.892857142857143 
O   0.035714285714286   0.178571428571429   0.750000000000000 
O   0.178571428571429   0.607142857142857   0.892857142857143 
O   0.892857142857143   0.178571428571429   0.178571428571429 
O   0.750000000000000   0.607142857142857   0.750000000000000 
O   0.035714285714286   0.607142857142857   0.321428571428571 
O   0.464285714285714   0.035714285714286   0.750000000000000 
O   0.607142857142857   0.464285714285714   0.321428571428571 
O   0.035714285714286   0.178571428571429   0.035714285714286 
O   0.607142857142857   0.750000000000000   0.178571428571429 
O   0.321428571428571   0.607142857142857   0.035714285714286 
O   0.035714285714286   0.892857142857143   0.750000000000000 
O   0.607142857142857   0.035714285714286   0.035714285714286 
O   0.464285714285714   0.607142857142857   0.464285714285714 
O   0.321428571428571   0.750000000000000   0.750000000000000 
O   0.607142857142857   0.750000000000000   0.750000000000000 
O   0.035714285714286   0.464285714285714   0.464285714285714 
O   0.321428571428571   0.321428571428571   0.892857142857143 
O   0.321428571428571   0.892857142857143   0.035714285714286 
O   0.892857142857143   0.178571428571429   0.750000000000000 
O   0.178571428571428   0.178571428571429   0.321428571428572 
O   0.321428571428571   0.892857142857143   0.178571428571429 
O   0.035714285714286   0.035714285714286   0.178571428571429 
O   0.321428571428571   0.178571428571429   0.892857142857143 
O   0.035714285714286   0.750000000000000   0.892857142857143 
O   0.607142857142857   0.607142857142857   0.464285714285714 
O   0.464285714285714   0.178571428571429   0.035714285714286 
O   0.178571428571429   0.750000000000000   0.035714285714286 
O   0.892857142857143   0.892857142857143   0.892857142857143 
O   0.607142857142857   0.035714285714286   0.892857142857143 
O   0.464285714285714   0.892857142857143   0.750000000000000 
O   0.178571428571429   0.035714285714286   0.750000000000000 
O   0.178571428571429   0.464285714285714   0.892857142857143 
O   0.464285714285714   0.464285714285714   0.464285714285714 
O   0.750000000000000   0.607142857142857   0.035714285714286 
O   0.321428571428571   0.035714285714286   0.321428571428571 
O   0.607142857142857   0.464285714285714   0.035714285714286 
O   0.178571428571429   0.892857142857143   0.750000000000000 
O   0.892857142857143   0.464285714285714   0.035714285714286 
O   0.464285714285714   0.321428571428572   0.035714285714286 
O   0.750000000000000   0.321428571428572   0.035714285714286 
O   0.464285714285714   0.035714285714286   0.178571428571429 
O   0.464285714285714   0.035714285714286   0.607142857142857 
O   0.464285714285714   0.750000000000000   0.892857142857143 
O   0.892857142857143   0.178571428571429   0.035714285714286 
O   0.750000000000000   0.750000000000000   0.178571428571428 
O   0.607142857142857   0.035714285714286   0.607142857142857 
O   0.750000000000000   0.035714285714286   0.321428571428572 
O   0.892857142857143   0.892857142857143   0.750000000000000 
O   0.464285714285714   0.321428571428571   0.607142857142857 
O   0.321428571428571   0.892857142857143   0.892857142857143 
O   0.750000000000000   0.750000000000000   0.321428571428571 
O   0.321428571428571   0.178571428571429   0.178571428571429 
O   0.750000000000000   0.750000000000000   0.464285714285714 
O   0.035714285714286   0.607142857142857   0.892857142857143 
O   0.750000000000000   0.035714285714286   0.607142857142857 
O   0.750000000000000   0.464285714285714   0.178571428571428 
O   0.035714285714286   0.035714285714286   0.892857142857143 
O   0.464285714285714   0.607142857142857   0.035714285714286 
O   0.464285714285714   0.178571428571429   0.178571428571429 
O   0.892857142857143   0.750000000000000   0.892857142857143 
O   0.178571428571428   0.750000000000000   0.464285714285714 
O   0.178571428571428   0.321428571428572   0.035714285714286 
O   0.464285714285714   0.607142857142857   0.607142857142857 
O   0.035714285714286   0.750000000000000   0.321428571428571 
O   0.892857142857143   0.321428571428571   0.607142857142857 
O   0.035714285714286   0.607142857142857   0.035714285714286 
O   0.750000000000000   0.178571428571429   0.178571428571429 
O   0.464285714285714   0.892857142857143   0.035714285714286 
O   0.035714285714286   0.750000000000000   0.607142857142857 
O   0.321428571428571   0.750000000000000   0.035714285714286 
O   0.892857142857143   0.035714285714286   0.035714285714286 
O   0.321428571428571   0.321428571428571   0.750000000000000 
O   0.464285714285714   0.035714285714286   0.321428571428572 
O   0.035714285714286   0.464285714285714   0.035714285714286 
O   0.321428571428571   0.607142857142857   0.607142857142857 
O   0.750000000000000   0.464285714285714   0.607142857142857 
O   0.035714285714286   0.464285714285714   0.178571428571429 
O   0.892857142857143   0.750000000000000   0.178571428571429 
O   0.892857142857143   0.035714285714286   0.321428571428571 
O   0.607142857142857   0.321428571428571   0.178571428571429 
O   0.178571428571428   0.464285714285714   0.750000000000000 
O   0.750000000000000   0.321428571428571   0.464285714285714 
O   0.607142857142857   0.607142857142857   0.321428571428571 
O   0.178571428571429   0.035714285714286   0.178571428571429 
O   0.607142857142857   0.607142857142857   0.607142857142857 
O   0.035714285714286   0.321428571428571   0.321428571428571 
O   0.464285714285714   0.750000000000000   0.178571428571429 
O   0.178571428571429   0.892857142857143   0.035714285714286 
O   0.607142857142857   0.178571428571429   0.321428571428571 
O   0.035714285714286   0.750000000000000   0.035714285714286 
O   0.321428571428571   0.750000000000000   0.178571428571429 
O   0.321428571428571   0.464285714285714   0.464285714285714 
O   0.035714285714286   0.607142857142857   0.750000000000000 
O   0.750000000000000   0.178571428571428   0.892857142857143 
O   0.035714285714286   0.178571428571429   0.464285714285714 
O   0.464285714285714   0.035714285714286   0.464285714285714 
O   0.892857142857143   0.178571428571429   0.607142857142857 
O   0.607142857142857   0.607142857142857   0.892857142857143 
O   0.464285714285714   0.607142857142857   0.321428571428571 
O   0.035714285714286   0.321428571428571   0.607142857142857 
O   0.892857142857143   0.892857142857143   0.464285714285714 
O   0.464285714285714   0.321428571428571   0.321428571428571 
O   0.178571428571429   0.750000000000000   0.178571428571429 
O   0.178571428571429   0.321428571428571   0.321428571428571 
O   0.892857142857143   0.464285714285714   0.178571428571429 
O   0.892857142857143   0.750000000000000   0.607142857142857 
O   0.035714285714286   0.321428571428571   0.892857142857143 
O   0.607142857142857   0.321428571428571   0.892857142857143 
O   0.035714285714286   0.035714285714286   0.607142857142857 
O   0.892857142857143   0.035714285714286   0.750000000000000 
O   0.321428571428571   0.464285714285714   0.321428571428571 
O   0.607142857142857   0.892857142857143   0.464285714285714 
O   0.321428571428571   0.750000000000000   0.321428571428571 
O   0.464285714285714   0.892857142857143   0.464285714285714 
O   0.035714285714286   0.892857142857143   0.178571428571429 
O   0.464285714285714   0.464285714285714   0.178571428571429 
O   0.750000000000000   0.607142857142857   0.178571428571429 
O   0.321428571428571   0.035714285714286   0.035714285714286 
O   0.035714285714286   0.464285714285714   0.321428571428571 
O   0.464285714285714   0.464285714285714   0.892857142857143 
O   0.464285714285714   0.750000000000000   0.464285714285714 
O   0.607142857142857   0.178571428571429   0.607142857142857 
O   0.035714285714286   0.607142857142857   0.178571428571429 
O   0.750000000000000   0.892857142857143   0.607142857142857 
O   0.178571428571429   0.607142857142857   0.321428571428571 
O   0.321428571428571   0.607142857142857   0.464285714285714 
O   0.750000000000000   0.464285714285714   0.321428571428571 
O   0.178571428571429   0.178571428571429   0.035714285714286 
O   0.892857142857143   0.321428571428571   0.750000000000000 
O   0.750000000000000   0.607142857142857   0.892857142857143 
O   0.321428571428571   0.035714285714286   0.750000000000000 
O   0.607142857142857   0.464285714285714   0.607142857142857 
O   0.321428571428571   0.607142857142857   0.892857142857143 
O   0.750000000000000   0.035714285714286   0.035714285714286 
O   0.892857142857143   0.178571428571429   0.464285714285714 
O   0.607142857142857   0.035714285714286   0.750000000000000 
O   0.321428571428571   0.178571428571429   0.607142857142857 
O   0.892857142857143   0.464285714285714   0.892857142857143 
O   0.178571428571429   0.464285714285714   0.464285714285714 
O   0.892857142857143   0.035714285714286   0.464285714285714 
O   0.892857142857143   0.607142857142857   0.035714285714286 
O   0.892857142857143   0.035714285714286   0.607142857142857 
O   0.035714285714286   0.321428571428572   0.035714285714286 
O   0.464285714285714   0.178571428571429   0.892857142857143 
O   0.892857142857143   0.178571428571429   0.892857142857143 
O   0.178571428571429   0.750000000000000   0.892857142857143 
O   0.607142857142857   0.178571428571429   0.035714285714286 
O   0.607142857142857   0.321428571428571   0.750000000000000 
O   0.750000000000000   0.892857142857143   0.178571428571428 
O   0.607142857142857   0.892857142857143   0.750000000000000 
O   0.035714285714286   0.607142857142857   0.464285714285714 
O   0.178571428571429   0.321428571428571   0.607142857142857 
O   0.464285714285714   0.750000000000000   0.321428571428571 
O   0.035714285714286   0.178571428571429   0.178571428571429 
O   0.178571428571429   0.607142857142857   0.035714285714286 
O   0.892857142857143   0.607142857142857   0.607142857142857 
O   0.178571428571429   0.607142857142857   0.178571428571429 
O   0.892857142857143   0.892857142857143   0.178571428571429 
O   0.607142857142857   0.035714285714286   0.178571428571429 
O   0.607142857142857   0.750000000000000   0.892857142857143 
O   0.035714285714286   0.464285714285714   0.607142857142857 
O   0.750000000000000   0.750000000000000   0.750000000000000 
O   0.750000000000000   0.892857142857143   0.750000000000000 
O   0.607142857142857   0.464285714285714   0.750000000000000 
O   0.750000000000000   0.321428571428571   0.892857142857143 
O   0.321428571428571   0.321428571428571   0.607142857142857 
O   0.321428571428571   0.892857142857143   0.321428571428571 
O   0.035714285714286   0.035714285714286   0.321428571428572 
O   0.464285714285714   0.464285714285714   0.750000000000000 
O   0.464285714285714   0.035714285714286   0.892857142857143 
O   0.892857142857143   0.750000000000000   0.321428571428571 
O   0.321428571428571   0.464285714285714   0.035714285714286 
O   0.035714285714286   0.892857142857143   0.607142857142857 
O   0.464285714285714   0.892857142857143   0.892857142857143 
O   0.035714285714286   0.321428571428571   0.750000000000000 
O   0.321428571428572   0.750000000000000   0.464285714285714 
O   0.750000000000000   0.178571428571429   0.607142857142857 
O   0.035714285714286   0.892857142857143   0.892857142857143 
O   0.321428571428572   0.607142857142857   0.750000000000000 
O   0.892857142857143   0.178571428571429   0.321428571428571 
O   0.750000000000000   0.892857142857143   0.321428571428571 
O   0.321428571428571   0.321428571428571   0.178571428571429 
O   0.892857142857143   0.892857142857143   0.035714285714286 
O   0.178571428571429   0.035714285714286   0.892857142857143 
O   0.750000000000000   0.178571428571429   0.035714285714286 
O   0.035714285714286   0.178571428571429   0.892857142857143 
O   0.321428571428571   0.607142857142857   0.321428571428571 
O   0.607142857142857   0.750000000000000   0.321428571428571 
O   0.321428571428571   0.607142857142857   0.178571428571429 
O   0.464285714285714   0.321428571428571   0.750000000000000 
O   0.750000000000000   0.035714285714286   0.892857142857143 
O   0.892857142857143   0.464285714285714   0.607142857142857 
O   0.178571428571429   0.464285714285714   0.178571428571429 
O   0.750000000000000   0.892857142857143   0.892857142857143 
O   0.607142857142857   0.750000000000000   0.607142857142857 
O   0.178571428571429   0.892857142857143   0.321428571428571 
O   0.750000000000000   0.321428571428572   0.178571428571429 
O   0.321428571428571   0.892857142857143   0.750000000000000 
O   0.178571428571428   0.750000000000000   0.750000000000000 
O   0.321428571428571   0.464285714285714   0.607142857142857 
O   0.178571428571429   0.321428571428571   0.892857142857143 
O   0.321428571428572   0.464285714285714   0.750000000000000 
O   0.750000000000000   0.464285714285714   0.035714285714286 
O   0.750000000000000   0.035714285714286   0.178571428571429 
O   0.464285714285714   0.321428571428571   0.892857142857143 
O   0.178571428571429   0.178571428571429   0.750000000000000 
O   0.750000000000000   0.607142857142857   0.607142857142857 
O   0.321428571428571   0.035714285714286   0.464285714285714 
O   0.607142857142857   0.464285714285714   0.178571428571429 
O   0.035714285714286   0.464285714285714   0.892857142857143 
O   0.178571428571429   0.607142857142857   0.750000000000000 
O   0.750000000000000   0.750000000000000   0.035714285714286 
O   0.607142857142857   0.607142857142857   0.035714285714286 
O   0.750000000000000   0.464285714285714   0.750000000000000 
O   0.178571428571429   0.178571428571429   0.464285714285714 
O   0.321428571428571   0.321428571428571   0.035714285714286 
O   0.892857142857143   0.464285714285714   0.464285714285714 
O   0.750000000000000   0.035714285714286   0.464285714285714 
O   0.607142857142857   0.321428571428571   0.321428571428571 
O   0.964285714285714   0.821428571428571   0.107142857142857 
O   0.678571428571428   0.392857142857143   0.678571428571428 
O   0.964285714285714   0.392857142857143   0.535714285714286 
O   0.964285714285714   0.392857142857143   0.392857142857143 
O   0.250000000000000   0.535714285714286   0.392857142857143 
O   0.535714285714286   0.964285714285714   0.678571428571428 
O   0.250000000000000   0.107142857142857   0.678571428571428 
O   0.535714285714286   0.821428571428571   0.107142857142857 
O   0.678571428571428   0.107142857142857   0.392857142857143 
O   0.678571428571428   0.250000000000000   0.535714285714286 
O   0.250000000000000   0.535714285714286   0.107142857142857 
O   0.535714285714286   0.678571428571429   0.821428571428571 
O   0.392857142857143   0.250000000000000   0.821428571428571 
O   0.821428571428571   0.964285714285714   0.107142857142857 
O   0.535714285714286   0.107142857142857   0.107142857142857 
O   0.535714285714286   0.821428571428571   0.821428571428571 
O   0.107142857142857   0.250000000000000   0.678571428571428 
O   0.678571428571428   0.107142857142857   0.535714285714286 
O   0.107142857142857   0.821428571428571   0.821428571428571 
O   0.964285714285714   0.107142857142857   0.250000000000000 
O   0.964285714285714   0.964285714285714   0.678571428571429 
O   0.535714285714286   0.392857142857143   0.535714285714286 
O   0.107142857142857   0.535714285714286   0.821428571428571 
O   0.964285714285714   0.678571428571429   0.392857142857143 
O   0.250000000000000   0.678571428571428   0.678571428571428 
O   0.250000000000000   0.392857142857143   0.535714285714286 
O   0.964285714285714   0.535714285714286   0.392857142857143 
O   0.392857142857143   0.250000000000000   0.107142857142857 
O   0.535714285714286   0.678571428571428   0.250000000000000 
O   0.392857142857143   0.250000000000000   0.392857142857143 
O   0.535714285714286   0.250000000000000   0.392857142857143 
O   0.678571428571428   0.678571428571428   0.250000000000000 
O   0.250000000000000   0.392857142857143   0.250000000000000 
O   0.535714285714286   0.678571428571428   0.964285714285714 
O   0.107142857142857   0.107142857142857   0.821428571428571 
O   0.678571428571428   0.964285714285714   0.250000000000000 
O   0.964285714285714   0.821428571428571   0.821428571428571 
O   0.535714285714286   0.250000000000000   0.678571428571428 
O   0.821428571428571   0.392857142857143   0.678571428571428 
O   0.535714285714286   0.250000000000000   0.535714285714286 
O   0.821428571428571   0.678571428571428   0.392857142857143 
O   0.392857142857143   0.107142857142857   0.250000000000000 
O   0.107142857142857   0.392857142857143   0.250000000000000 
O   0.535714285714286   0.964285714285714   0.250000000000000 
O   0.535714285714286   0.535714285714286   0.392857142857143 
O   0.392857142857143   0.821428571428571   0.964285714285714 
O   0.392857142857143   0.392857142857143   0.392857142857143 
O   0.821428571428571   0.250000000000000   0.392857142857143 
O   0.535714285714286   0.250000000000000   0.821428571428571 
O   0.107142857142857   0.392857142857143   0.535714285714286 
O   0.250000000000000   0.678571428571428   0.535714285714286 
O   0.821428571428571   0.535714285714286   0.535714285714286 
O   0.250000000000000   0.250000000000000   0.250000000000000 
O   0.964285714285714   0.392857142857143   0.107142857142857 
O   0.250000000000000   0.964285714285714   0.964285714285714 
O   0.678571428571428   0.392857142857143   0.107142857142857 
O   0.678571428571429   0.964285714285714   0.392857142857143 
O   0.678571428571428   0.678571428571428   0.821428571428572 
O   0.821428571428571   0.821428571428571   0.964285714285714 
O   0.250000000000000   0.535714285714286   0.678571428571428 
O   0.678571428571428   0.535714285714286   0.535714285714286 
O   0.250000000000000   0.964285714285714   0.250000000000000 
O   0.678571428571428   0.964285714285714   0.107142857142857 
O   0.107142857142857   0.821428571428571   0.250000000000000 
O   0.535714285714286   0.535714285714286   0.107142857142857 
O   0.535714285714286   0.964285714285714   0.392857142857143 
O   0.250000000000000   0.107142857142857   0.392857142857143 
O   0.250000000000000   0.107142857142857   0.535714285714286 
O   0.678571428571428   0.250000000000000   0.964285714285714 
O   0.678571428571428   0.250000000000000   0.250000000000000 
O   0.821428571428571   0.678571428571428   0.535714285714286 
O   0.678571428571429   0.964285714285714   0.964285714285714 
O   0.250000000000000   0.392857142857143   0.821428571428571 
O   0.678571428571429   0.821428571428571   0.535714285714286 
O   0.821428571428571   0.107142857142857   0.821428571428571 
O   0.250000000000000   0.821428571428571   0.392857142857143 
O   0.821428571428571   0.250000000000000   0.821428571428572 
O   0.107142857142857   0.250000000000000   0.392857142857143 
O   0.392857142857143   0.107142857142857   0.678571428571428 
O   0.964285714285714   0.392857142857143   0.964285714285714 
O   0.678571428571428   0.250000000000000   0.821428571428572 
O   0.964285714285714   0.964285714285714   0.392857142857143 
O   0.535714285714286   0.392857142857143   0.250000000000000 
O   0.250000000000000   0.250000000000000   0.964285714285714 
O   0.678571428571428   0.392857142857143   0.535714285714286 
O   0.392857142857143   0.107142857142857   0.964285714285714 
O   0.392857142857143   0.964285714285714   0.535714285714286 
O   0.107142857142857   0.107142857142857   0.535714285714286 
O   0.821428571428571   0.392857142857143   0.821428571428571 
O   0.821428571428571   0.821428571428572   0.678571428571428 
O   0.964285714285714   0.821428571428571   0.535714285714286 
O   0.392857142857143   0.535714285714286   0.250000000000000 
O   0.535714285714286   0.535714285714286   0.678571428571428 
O   0.107142857142857   0.964285714285714   0.392857142857143 
O   0.964285714285714   0.678571428571428   0.250000000000000 
O   0.964285714285714   0.392857142857143   0.250000000000000 
O   0.250000000000000   0.250000000000000   0.678571428571428 
O   0.392857142857143   0.821428571428572   0.678571428571428 
O   0.964285714285714   0.678571428571428   0.535714285714286 
O   0.821428571428571   0.250000000000000   0.535714285714286 
O   0.821428571428571   0.964285714285714   0.535714285714286 
O   0.107142857142857   0.964285714285714   0.107142857142857 
O   0.678571428571428   0.964285714285714   0.678571428571428 
O   0.535714285714286   0.821428571428571   0.678571428571429 
O   0.250000000000000   0.964285714285714   0.535714285714286 
O   0.678571428571429   0.821428571428571   0.107142857142857 
O   0.107142857142857   0.821428571428571   0.535714285714286 
O   0.964285714285714   0.678571428571429   0.821428571428571 
O   0.392857142857143   0.392857142857143   0.535714285714286 
O   0.250000000000000   0.964285714285714   0.678571428571428 
O   0.964285714285714   0.535714285714286   0.821428571428571 
O   0.392857142857143   0.250000000000000   0.535714285714286 
O   0.964285714285714   0.107142857142857   0.964285714285714 
O   0.964285714285714   0.678571428571429   0.964285714285714 
O   0.678571428571428   0.535714285714286   0.964285714285714 
O   0.821428571428571   0.535714285714286   0.964285714285714 
O   0.107142857142857   0.964285714285714   0.535714285714286 
O   0.821428571428571   0.392857142857143   0.392857142857143 
O   0.250000000000000   0.107142857142857   0.107142857142857 
O   0.392857142857143   0.964285714285714   0.678571428571428 
O   0.250000000000000   0.821428571428572   0.678571428571428 
O   0.107142857142857   0.678571428571428   0.678571428571428 
O   0.392857142857143   0.535714285714286   0.964285714285714 
O   0.107142857142857   0.250000000000000   0.821428571428571 
O   0.250000000000000   0.678571428571428   0.964285714285714 
O   0.964285714285714   0.250000000000000   0.250000000000000 
O   0.821428571428571   0.678571428571428   0.821428571428572 
O   0.107142857142857   0.678571428571428   0.392857142857143 
O   0.535714285714286   0.107142857142857   0.821428571428571 
O   0.678571428571428   0.535714285714286   0.392857142857143 
O   0.107142857142857   0.250000000000000   0.107142857142857 
O   0.678571428571428   0.821428571428572   0.250000000000000 
O   0.392857142857143   0.678571428571428   0.107142857142857 
O   0.107142857142857   0.964285714285714   0.821428571428571 
O   0.678571428571428   0.107142857142857   0.107142857142857 
O   0.535714285714286   0.678571428571428   0.535714285714286 
O   0.392857142857143   0.821428571428571   0.821428571428571 
O   0.678571428571429   0.821428571428571   0.821428571428571 
O   0.107142857142857   0.535714285714286   0.535714285714286 
O   0.392857142857143   0.392857142857143   0.964285714285714 
O   0.392857142857143   0.964285714285714   0.107142857142857 
O   0.964285714285714   0.250000000000000   0.821428571428571 
O   0.250000000000000   0.250000000000000   0.392857142857143 
O   0.392857142857143   0.964285714285714   0.250000000000000 
O   0.107142857142857   0.107142857142857   0.250000000000000 
O   0.392857142857143   0.250000000000000   0.964285714285714 
O   0.107142857142857   0.821428571428571   0.964285714285714 
O   0.678571428571428   0.678571428571428   0.535714285714286 
O   0.535714285714286   0.250000000000000   0.107142857142857 
O   0.250000000000000   0.821428571428571   0.107142857142857 
O   0.964285714285714   0.964285714285714   0.964285714285714 
O   0.678571428571428   0.107142857142857   0.964285714285714 
O   0.535714285714286   0.964285714285714   0.821428571428571 
O   0.250000000000000   0.107142857142857   0.821428571428571 
O   0.250000000000000   0.535714285714286   0.964285714285714 
O   0.535714285714286   0.535714285714286   0.535714285714286 
O   0.821428571428571   0.678571428571428   0.107142857142857 
O   0.392857142857143   0.107142857142857   0.392857142857143 
O   0.678571428571428   0.535714285714286   0.107142857142857 
O   0.250000000000000   0.964285714285714   0.821428571428571 
O   0.964285714285714   0.535714285714286   0.107142857142857 
O   0.535714285714286   0.392857142857143   0.107142857142857 
O   0.821428571428571   0.392857142857143   0.107142857142857 
O   0.535714285714286   0.107142857142857   0.250000000000000 
O   0.535714285714286   0.107142857142857   0.678571428571428 
O   0.535714285714286   0.821428571428571   0.964285714285714 
O   0.964285714285714   0.250000000000000   0.107142857142857 
O   0.821428571428571   0.821428571428572   0.250000000000000 
O   0.678571428571428   0.107142857142857   0.678571428571428 
O   0.821428571428571   0.107142857142857   0.392857142857143 
O   0.964285714285714   0.964285714285714   0.821428571428571 
O   0.535714285714286   0.392857142857143   0.678571428571428 
O   0.392857142857143   0.964285714285714   0.964285714285714 
O   0.821428571428571   0.821428571428571   0.392857142857143 
O   0.392857142857143   0.250000000000000   0.250000000000000 
O   0.821428571428572   0.821428571428571   0.535714285714286 
O   0.107142857142857   0.678571428571428   0.964285714285714 
O   0.821428571428571   0.107142857142857   0.678571428571428 
O   0.821428571428571   0.535714285714286   0.250000000000000 
O   0.107142857142857   0.107142857142857   0.964285714285714 
O   0.535714285714286   0.678571428571428   0.107142857142857 
O   0.535714285714286   0.250000000000000   0.250000000000000 
O   0.964285714285714   0.821428571428571   0.964285714285714 
O   0.250000000000000   0.821428571428571   0.535714285714286 
O   0.250000000000000   0.392857142857143   0.107142857142857 
O   0.535714285714286   0.678571428571428   0.678571428571428 
O   0.107142857142857   0.821428571428571   0.392857142857143 
O   0.964285714285714   0.392857142857143   0.678571428571429 
O   0.107142857142857   0.678571428571428   0.107142857142857 
O   0.821428571428571   0.250000000000000   0.250000000000000 
O   0.535714285714286   0.964285714285714   0.107142857142857 
O   0.107142857142857   0.821428571428571   0.678571428571429 
O   0.392857142857143   0.821428571428571   0.107142857142857 
O   0.964285714285714   0.107142857142857   0.107142857142857 
O   0.392857142857143   0.392857142857143   0.821428571428571 
O   0.535714285714286   0.107142857142857   0.392857142857143 
O   0.107142857142857   0.535714285714286   0.107142857142857 
O   0.392857142857143   0.678571428571428   0.678571428571428 
O   0.821428571428571   0.535714285714286   0.678571428571428 
O   0.107142857142857   0.535714285714286   0.250000000000000 
O   0.964285714285714   0.821428571428571   0.250000000000000 
O   0.964285714285714   0.107142857142857   0.392857142857143 
O   0.678571428571428   0.392857142857143   0.250000000000000 
O   0.250000000000000   0.535714285714286   0.821428571428571 
O   0.821428571428571   0.392857142857143   0.535714285714286 
O   0.678571428571428   0.678571428571428   0.392857142857143 
O   0.250000000000000   0.107142857142857   0.250000000000000 
O   0.678571428571428   0.678571428571428   0.678571428571428 
O   0.107142857142857   0.392857142857143   0.392857142857143 
O   0.535714285714286   0.821428571428571   0.250000000000000 
O   0.250000000000000   0.964285714285714   0.107142857142857 
O   0.678571428571428   0.250000000000000   0.392857142857143 
O   0.107142857142857   0.821428571428571   0.107142857142857 
O   0.392857142857143   0.821428571428571   0.250000000000000 
O   0.392857142857143   0.535714285714286   0.535714285714286 
O   0.107142857142857   0.678571428571429   0.821428571428571 
O   0.821428571428571   0.250000000000000   0.964285714285714 
O   0.107142857142857   0.250000000000000   0.535714285714286 
O   0.535714285714286   0.107142857142857   0.535714285714286 
O   0.964285714285714   0.250000000000000   0.678571428571428 
O   0.678571428571428   0.678571428571428   0.964285714285714 
O   0.535714285714286   0.678571428571428   0.392857142857143 
O   0.107142857142857   0.392857142857143   0.678571428571428 
O   0.964285714285714   0.964285714285714   0.535714285714286 
O   0.535714285714286   0.392857142857143   0.392857142857143 
O   0.250000000000000   0.821428571428571   0.250000000000000 
O   0.250000000000000   0.392857142857143   0.392857142857143 
O   0.964285714285714   0.535714285714286   0.250000000000000 
O   0.964285714285714   0.821428571428571   0.678571428571429 
O   0.107142857142857   0.392857142857143   0.964285714285714 
O   0.678571428571429   0.392857142857143   0.964285714285714 
O   0.107142857142857   0.107142857142857   0.678571428571428 
O   0.964285714285714   0.107142857142857   0.821428571428571 
O   0.392857142857143   0.535714285714286   0.392857142857143 
O   0.678571428571428   0.964285714285714   0.535714285714286 
O   0.392857142857143   0.821428571428571   0.392857142857143 
O   0.535714285714286   0.964285714285714   0.535714285714286 
O   0.107142857142857   0.964285714285714   0.250000000000000 
O   0.535714285714286   0.535714285714286   0.250000000000000 
O   0.821428571428571   0.678571428571428   0.250000000000000 
O   0.392857142857143   0.107142857142857   0.107142857142857 
O   0.107142857142857   0.535714285714286   0.392857142857143 
O   0.535714285714286   0.535714285714286   0.964285714285714 
O   0.535714285714286   0.821428571428571   0.535714285714286 
O   0.678571428571428   0.250000000000000   0.678571428571428 
O   0.107142857142857   0.678571428571428   0.250000000000000 
O   0.821428571428571   0.964285714285714   0.678571428571428 
O   0.250000000000000   0.678571428571428   0.392857142857143 
O   0.392857142857143   0.678571428571428   0.535714285714286 
O   0.821428571428571   0.535714285714286   0.392857142857143 
O   0.250000000000000   0.250000000000000   0.107142857142857 
O   0.964285714285714   0.392857142857143   0.821428571428571 
O   0.821428571428571   0.678571428571428   0.964285714285714 
O   0.392857142857143   0.107142857142857   0.821428571428571 
O   0.678571428571428   0.535714285714286   0.678571428571428 
O   0.392857142857143   0.678571428571428   0.964285714285714 
O   0.821428571428571   0.107142857142857   0.107142857142857 
O   0.964285714285714   0.250000000000000   0.535714285714286 
O   0.678571428571429   0.107142857142857   0.821428571428571 
O   0.392857142857143   0.250000000000000   0.678571428571428 
O   0.964285714285714   0.535714285714286   0.964285714285714 
O   0.250000000000000   0.535714285714286   0.535714285714286 
O   0.964285714285714   0.107142857142857   0.535714285714286 
O   0.964285714285714   0.678571428571428   0.107142857142857 
O   0.964285714285714   0.107142857142857   0.678571428571428 
O   0.107142857142857   0.392857142857143   0.107142857142857 
O   0.535714285714286   0.250000000000000   0.964285714285714 
O   0.964285714285714   0.250000000000000   0.964285714285714 
O   0.250000000000000   0.821428571428571   0.964285714285714 
O   0.678571428571428   0.250000000000000   0.107142857142857 
O   0.678571428571428   0.392857142857143   0.821428571428571 
O   0.821428571428571   0.964285714285714   0.250000000000000 
O   0.678571428571429   0.964285714285714   0.821428571428571 
O   0.107142857142857   0.678571428571428   0.535714285714286 
O   0.250000000000000   0.392857142857143   0.678571428571428 
O   0.535714285714286   0.821428571428571   0.392857142857143 
O   0.107142857142857   0.250000000000000   0.250000000000000 
O   0.250000000000000   0.678571428571428   0.107142857142857 
O   0.964285714285714   0.678571428571428   0.678571428571428 
O   0.250000000000000   0.678571428571428   0.250000000000000 
O   0.964285714285714   0.964285714285714   0.250000000000000 
O   0.678571428571428   0.107142857142857   0.250000000000000 
O   0.678571428571429   0.821428571428571   0.964285714285714 
O   0.107142857142857   0.535714285714286   0.678571428571428 
O   0.821428571428571   0.821428571428571   0.821428571428571 
O   0.821428571428571   0.964285714285714   0.821428571428571 
O   0.678571428571429   0.535714285714286   0.821428571428571 
O   0.821428571428572   0.392857142857143   0.964285714285714 
O   0.392857142857143   0.392857142857143   0.678571428571428 
O   0.392857142857143   0.964285714285714   0.392857142857143 
O   0.107142857142857   0.107142857142857   0.392857142857143 
O   0.535714285714286   0.535714285714286   0.821428571428571 
O   0.535714285714286   0.107142857142857   0.964285714285714 
O   0.964285714285714   0.821428571428571   0.392857142857143 
O   0.392857142857143   0.535714285714286   0.107142857142857 
O   0.107142857142857   0.964285714285714   0.678571428571428 
O   0.535714285714286   0.964285714285714   0.964285714285714 
O   0.107142857142857   0.392857142857143   0.821428571428571 
O   0.392857142857143   0.821428571428571   0.535714285714286 
O   0.821428571428571   0.250000000000000   0.678571428571428 
O   0.107142857142857   0.964285714285714   0.964285714285714 
O   0.392857142857143   0.678571428571428   0.821428571428572 
O   0.964285714285714   0.250000000000000   0.392857142857143 
O   0.821428571428572   0.964285714285714   0.392857142857143 
O   0.392857142857143   0.392857142857143   0.250000000000000 
O   0.964285714285714   0.964285714285714   0.107142857142857 
O   0.250000000000000   0.107142857142857   0.964285714285714 
O   0.821428571428571   0.250000000000000   0.107142857142857 
O   0.107142857142857   0.250000000000000   0.964285714285714 
O   0.392857142857143   0.678571428571428   0.392857142857143 
O   0.678571428571428   0.821428571428571   0.392857142857143 
O   0.392857142857143   0.678571428571428   0.250000000000000 
O   0.535714285714286   0.392857142857143   0.821428571428571 
O   0.821428571428571   0.107142857142857   0.964285714285714 
O   0.964285714285714   0.535714285714286   0.678571428571428 
O   0.250000000000000   0.535714285714286   0.250000000000000 
O   0.821428571428571   0.964285714285714   0.964285714285714 
O   0.678571428571428   0.821428571428572   0.678571428571428 
O   0.250000000000000   0.964285714285714   0.392857142857143 
O   0.821428571428571   0.392857142857143   0.250000000000000 
O   0.392857142857143   0.964285714285714   0.821428571428571 
O   0.250000000000000   0.821428571428571   0.821428571428571 
O   0.392857142857143   0.535714285714286   0.678571428571428 
O   0.250000000000000   0.392857142857143   0.964285714285714 
O   0.392857142857143   0.535714285714286   0.821428571428571 
O   0.821428571428571   0.535714285714286   0.107142857142857 
O   0.821428571428571   0.107142857142857   0.250000000000000 
O   0.535714285714286   0.392857142857143   0.964285714285714 
O   0.250000000000000   0.250000000000000   0.821428571428571 
O   0.821428571428571   0.678571428571428   0.678571428571428 
O   0.392857142857143   0.107142857142857   0.535714285714286 
O   0.678571428571428   0.535714285714286   0.250000000000000 
O   0.107142857142857   0.535714285714286   0.964285714285714 
O   0.250000000000000   0.678571428571428   0.821428571428572 
O   0.821428571428571   0.821428571428571   0.107142857142857 
O   0.678571428571428   0.678571428571428   0.107142857142857 
O   0.821428571428572   0.535714285714286   0.821428571428571 
O   0.250000000000000   0.250000000000000   0.535714285714286 
O   0.392857142857143   0.392857142857143   0.107142857142857 
O   0.964285714285714   0.535714285714286   0.535714285714286 
O   0.821428571428571   0.107142857142857   0.535714285714286 
O   0.678571428571428   0.392857142857143   0.392857142857143 
