# ncores       nodes         MPI     threads         dip          Xo    Xo_REDUX           X     X_REDUX        io_X       io_WF       Sgm_x     (REDUX)       Sgm_c     (REDUX)   WALL_TIME
    5120          40         160          32   269.4412s       1h40m   523.2620s    22.3009s    13.1631s    54.4594s    37.8484s     3.0259s     0.2197s   103.9458s     4.6436s   01h58m09s
   12800         100         400          32   123.5515s   46m27.00s    62.0830s    22.6409s    14.9207s    86.4791s    17.7333s     1.5162s     0.5460s    65.7533s     0.1791s      56m58s
   32000         250        1000          32    69.3077s   25m47.00s   232.2554s    27.4492s    15.5771s    55.6098s    24.5658s     0.8367s     0.5649s    48.9692s     8.0058s      37m32s
