
     Program PWSCF v.6.5 starts on 25Jun2020 at 13:52:46 

     This program is part of the open-source Quantum ESPRESSO suite
     for quantum simulation of materials; please cite
         "P. Giannozzi et al., J. Phys.:Condens. Matter 21 395502 (2009);
         "P. Giannozzi et al., J. Phys.:Condens. Matter 29 465901 (2017);
         "P. Giannozzi et al., J. Chem. Phys. 152 154105 (2020);
          URL http://www.quantum-espresso.org", 
     in publications or presentations arising from this work. More details at
     http://www.quantum-espresso.org/quote

     Parallel version (MPI & OpenMP), running on       1 processor cores
     Number of MPI processes:                 1
     Threads/MPI process:                     1

     MPI processes distributed on     1 nodes
     Fft bands division:     nmany     =       1
     Reading input from small1.nscf.ppcg.in
Warning: card &IONS ignored
Warning: card / ignored
     Message from routine read_cards :
     DEPRECATED: no units specified in CELL_PARAMETERS card

     Current dimensions of program PWSCF are:
     Max number of different atomic species (ntypx) = 10
     Max number of k-points (npk) =  40000
     Max angular momentum in pseudopotentials (lmaxx) =  3

     Atomic positions and unit cell read from directory:
     ./pwscf.save/                                                                                                                                                                                                                                                   
     Atomic positions from file used, from input discarded
 

     Subspace diagonalization in iterative solution of the eigenvalue problem:
     a serial algorithm will be used

     Message from routine setup:
     using ibrav=0 with symmetry is DISCOURAGED, use correct ibrav instead
 
     G-vector sticks info
     --------------------
     sticks:   dense  smooth     PW     G-vecs:    dense   smooth      PW
     Sum        2107    2107    535                64767    64767    8099
 
     Using Slab Decomposition
 


     bravais-lattice index     =            0
     lattice parameter (alat)  =       8.0174  a.u.
     unit-cell volume          =     364.4100 (a.u.)^3
     number of atoms/cell      =            2
     number of atomic types    =            2
     number of electrons       =        20.00
     number of Kohn-Sham states=          138
     kinetic-energy cutoff     =     120.0000  Ry
     charge density cutoff     =     480.0000  Ry
     Exchange-correlation= SLA  PW   NOGX NOGC
                           (   1   4   0   0   0   0   0)

     GPU acceleration is ACTIVE.


     celldm(1)=   8.017428  celldm(2)=   0.000000  celldm(3)=   0.000000
     celldm(4)=   0.000000  celldm(5)=   0.000000  celldm(6)=   0.000000

     crystal axes: (cart. coord. in units of alat)
               a(1) = (   0.000000   0.707107   0.707107 )  
               a(2) = (   0.707107   0.000000   0.707107 )  
               a(3) = (   0.707107   0.707107   0.000000 )  

     reciprocal axes: (cart. coord. in units 2 pi/alat)
               b(1) = ( -0.707107  0.707107  0.707107 )  
               b(2) = (  0.707107 -0.707107  0.707107 )  
               b(3) = (  0.707107  0.707107 -0.707107 )  


     PseudoPot. # 1 for Li read from file:
     pseudo/Li-s-high.oncvpsp.UPF
     MD5 check sum: 28ddc451d41a9eb941d57b14c6827fbc
     Pseudo is Norm-conserving, Zval =  3.0
     Generated using ONCVPSP code by D. R. Hamann
     Using radial grid of 1944 points,  4 beta functions with: 
                l(1) =   0
                l(2) =   0
                l(3) =   1
                l(4) =   1

     PseudoPot. # 2 for I  read from file:
     pseudo/I-d.oncvpsp.UPF
     MD5 check sum: b44f48e92c08f84f8b769b3c07a76309
     Pseudo is Norm-conserving + core correction, Zval = 17.0
     Generated using ONCVPSP code by D. R. Hamann
     Using radial grid of 1182 points,  6 beta functions with: 
                l(1) =   0
                l(2) =   0
                l(3) =   1
                l(4) =   1
                l(5) =   2
                l(6) =   2

     atomic species   valence    mass     pseudopotential
        Li             3.00     6.94100     Li( 1.00)
        I             17.00   126.90000     I ( 1.00)

     48 Sym. Ops., with inversion, found



   Cartesian axes

     site n.     atom                  positions (alat units)
         1           Li  tau(   1) = (   0.7071068   0.7071068   0.7071068  )
         2           I   tau(   2) = (   0.0000000   0.0000000   0.0000000  )

     number of k points=     1
                       cart. coord. in units 2pi/alat
        k(    1) = (   0.0220971   0.0110485   0.0000000), wk =   2.0000000

     Dense  grid:    64767 G-vectors     FFT dimensions: (  60,  60,  60)

     Estimated max dynamical RAM per process >      83.55 MB

     The potential is recalculated from file :
     ./pwscf.save/charge-density

     Starting wfcs are   11 randomized atomic wfcs +  127 random wfcs

     Band Structure Calculation
     PPCG style diagonalization

     ethr =  5.00E-13,  avg # of iterations = 21.0

     total cpu time spent up to now is       13.0 secs

     End of band structure calculation

          k = 0.0221 0.0110 0.0000 (  7996 PWs)   bands (ev):

   -40.1892 -39.3146 -39.3146 -39.3107 -39.3107 -39.3107  -7.6650   4.0803
     4.0927   4.0964   8.1773  12.3350  12.3651  12.3672  13.4787  13.5744
    13.5939  14.8506  14.9085  14.9393  21.3765  28.7138  28.7313  28.8094
    29.5030  29.5210  29.6435  30.2563  30.4225  30.4426  32.1268  32.1872
    36.3472  36.4373  36.4670  38.3169  39.4162  39.6734  39.7755  40.8193
    40.8377  40.9229  42.8213  42.8911  43.0736  43.4385  43.5431  43.6188
    44.1703  44.3363  44.3557  46.1120  46.2464  46.2800  47.8076  47.8751
    48.3228  48.3450  48.5591  49.0043  49.4175  49.4975  49.9989  51.6351
    55.6892  59.4237  59.5416  59.5442  63.3868  63.5034  64.9859  65.0085
    65.0189  69.6610  71.1513  72.6158  72.7366  73.7891  73.8288  74.0070
    74.6026  74.6178  74.6209  76.2182  76.2251  76.3733  76.7806  76.8250
    76.8535  77.8650  78.0638  78.1070  78.5977  78.6722  78.8529  79.2775
    79.4175  79.7541  79.8011  79.8382  80.5013  80.5851  80.7179  80.9596
    81.2188  81.2795  81.3393  81.4074  81.5655  82.0743  82.4199  82.4723
    82.5726  82.6804  82.6869  83.1382  83.6292  87.5001  90.2191  90.6765
    91.8965  91.9213  92.0899  95.3194  95.5693  95.6154  96.2223  96.2626
    96.5467  96.6688  97.2801  97.2956  97.5324  97.6910  97.7916  97.9635
    98.4103  98.5169

     highest occupied, lowest unoccupied level (ev):     4.0964    8.1773

     Writing output data file ./pwscf.save/
 
     init_run     :      0.15s CPU      0.18s WALL (       1 calls)
     electrons    :      8.65s CPU     12.02s WALL (       1 calls)

     Called by init_run:
     wfcinit      :      0.00s CPU      0.00s WALL (       1 calls)
                                        0.00s GPU  (       1 calls)
     potinit      :      0.02s CPU      0.02s WALL (       1 calls)
     hinit0       :      0.08s CPU      0.09s WALL (       1 calls)

     Called by electrons:
     c_bands      :      8.65s CPU     11.62s WALL (       1 calls)
     v_of_rho     :      0.01s CPU      0.01s WALL (       1 calls)

     Called by c_bands:
     init_us_2    :      0.00s CPU      0.01s WALL (       1 calls)
     ppcg_k       :      7.47s CPU     10.30s WALL (       1 calls)
     wfcrot       :      0.93s CPU      0.95s WALL (       1 calls)

     Called by ppcg_*:
     h_psi        :      1.86s CPU      2.48s WALL (      22 calls)
                                        1.64s GPU  (      21 calls)

     Called by h_psi:
     h_psi:calbec :      0.12s CPU      0.20s WALL (      22 calls)
                                        0.19s GPU  (      21 calls)
     vloc_psi     :      1.72s CPU      2.25s WALL (      22 calls)
                                        1.42s GPU  (      21 calls)
     add_vuspsi   :      0.01s CPU      0.02s WALL (      22 calls)
                                        0.01s GPU  (      21 calls)

     General routines
     calbec       :      0.12s CPU      0.19s WALL (      22 calls)
     fft          :      0.01s CPU      0.01s WALL (       4 calls)
     fftw         :      0.82s CPU      2.13s WALL (     654 calls)
                                        1.17s GPU  (     378 calls)
     davcio       :      0.00s CPU      0.41s WALL (       2 calls)
 
     Parallel routines
 
     PWSCF        :      9.82s CPU     13.51s WALL

 
   This run was terminated on:  13:52:59  25Jun2020            

=------------------------------------------------------------------------------=
   JOB DONE.
=------------------------------------------------------------------------------=
