
     Program PWSCF v.6.5 starts on 28May2020 at 17:16:32 

     This program is part of the open-source Quantum ESPRESSO suite
     for quantum simulation of materials; please cite
         "P. Giannozzi et al., J. Phys.:Condens. Matter 21 395502 (2009);
         "P. Giannozzi et al., J. Phys.:Condens. Matter 29 465901 (2017);
          URL http://www.quantum-espresso.org", 
     in publications or presentations arising from this work. More details at
     http://www.quantum-espresso.org/quote

     Parallel version (MPI), running on     8 processors

     MPI processes distributed on     1 nodes
     R & G space division:  proc/nbgrp/npool/nimage =       8
     Fft bands division:     nmany     =       1
     Reading input from nscf.in
Warning: card &IONS ignored
Warning: card / ignored
Warning: card &CELL ignored
Warning: card / ignored

     Current dimensions of program PWSCF are:
     Max number of different atomic species (ntypx) = 10
     Max number of k-points (npk) =  40000
     Max angular momentum in pseudopotentials (lmaxx) =  3

     Atomic positions and unit cell read from directory:
     ./pwscf.save/                                                                                                                                                                                                                                                   
     Atomic positions from file used, from input discarded
 

     IMPORTANT: XC functional enforced from input :
     Exchange-correlation= BLYP
                           (   1   3   1   3   0   0   0)
     Any further DFT definition will be discarded
     Please, verify this is what you really want


     Subspace diagonalization in iterative solution of the eigenvalue problem:
     one sub-group per band group will be used
     scalapack distributed-memory algorithm (size of sub-group:  2*  2 procs)

 
     Parallelization info
     --------------------
     sticks:   dense  smooth     PW     G-vecs:    dense   smooth      PW
     Min         118     118     51                 1797     1797     512
     Max         119     119     52                 1798     1798     514
     Sum         951     951    411                14383    14383    4105
 


     bravais-lattice index     =            0
     lattice parameter (alat)  =       5.2968  a.u.
     unit-cell volume          =     229.4434 (a.u.)^3
     number of atoms/cell      =           24
     number of atomic types    =            1
     number of electrons       =        24.00
     number of Kohn-Sham states=           24
     kinetic-energy cutoff     =      60.0000  Ry
     charge density cutoff     =     240.0000  Ry
     Exchange-correlation= BLYP
                           (   1   3   1   3   0   0   0)

     celldm(1)=   5.296788  celldm(2)=   0.000000  celldm(3)=   0.000000
     celldm(4)=   0.000000  celldm(5)=   0.000000  celldm(6)=   0.000000

     crystal axes: (cart. coord. in units of alat)
               a(1) = (   0.500712   0.011658  -0.865535 )  
               a(2) = (  -0.036342   1.780445   0.000000 )  
               a(3) = (   0.500712   0.011658   0.865535 )  

     reciprocal axes: (cart. coord. in units 2 pi/alat)
               b(1) = (  0.998104  0.020373 -0.577677 )  
               b(2) = ( -0.013070  0.561391  0.000000 )  
               b(3) = (  0.998104  0.020373  0.577677 )  


     PseudoPot. # 1 for H  read from file:
     ../pseudo/H.blyp-vbc.UPF
     MD5 check sum: 1a3a213f4d5cd54e5c4bfa2599a500cd
     Pseudo is Norm-conserving, Zval =  1.0
     Generated by new atomic code, or converted to UPF format
     Using radial grid of  243 points,  0 beta functions with: 

     atomic species   valence    mass     pseudopotential
        H              1.00     1.00800     H ( 1.00)

     No symmetry found



   Cartesian axes

     site n.     atom                  positions (alat units)
         1           H   tau(   1) = (   0.5620780   0.2358635  -0.1671688  )
         2           H   tau(   2) = (   0.4211750   0.6776740  -0.1671688  )
         3           H   tau(   3) = (   0.4030039   1.5678963   0.1671688  )
         4           H   tau(   4) = (   0.5439069   1.1260857   0.1671688  )
         5           H   tau(   5) = (   0.7114032   0.2402592   0.0462121  )
         6           H   tau(   6) = (   0.2718498   0.6732782   0.0462121  )
         7           H   tau(   7) = (   0.2536787   1.5635005  -0.0462121  )
         8           H   tau(   8) = (   0.6932321   1.1304815  -0.0462121  )
         9           H   tau(   9) = (   0.6794521   0.2113508   0.5157488  )
        10           H   tau(  10) = (   0.3038009   0.7021866   0.5157488  )
        11           H   tau(  11) = (   0.2856298   1.5924089  -0.5157488  )
        12           H   tau(  12) = (   0.6612810   1.1015731  -0.5157488  )
        13           H   tau(  13) = (   0.0629119   0.2181514  -0.1165128  )
        14           H   tau(  14) = (   0.9203411   0.6953861  -0.1165128  )
        15           H   tau(  15) = (   0.9021700   1.5856084   0.1165128  )
        16           H   tau(  16) = (   0.0447408   1.1083736   0.1165128  )
        17           H   tau(  17) = (   1.1046018   0.2761740   0.3074891  )
        18           H   tau(  18) = (  -0.1213488   0.6373635   0.3074891  )
        19           H   tau(  19) = (  -0.1395199   1.5275858  -0.3074891  )
        20           H   tau(  20) = (   1.0864307   1.1663962  -0.3074891  )
        21           H   tau(  21) = (   0.3626381   0.2354684   0.2824843  )
        22           H   tau(  22) = (   0.6206148   0.6780691   0.2824843  )
        23           H   tau(  23) = (   0.6024437   1.5682914  -0.2824843  )
        24           H   tau(  24) = (   0.3444670   1.1256906  -0.2824843  )

     number of k points=   256  Marzari-Vanderbilt smearing, width (Ry)=  0.0300

     Number of k-points >= 100: set verbosity='high' to print them.

     Dense  grid:    14383 G-vectors     FFT dimensions: (  27,  48,  27)

     Estimated max dynamical RAM per process >       0.86 MB

     Estimated total dynamical RAM >       6.87 MB

     The potential is recalculated from file :
     ./pwscf.save/charge-density

     Starting wfcs are   24 randomized atomic wfcs

     Band Structure Calculation
     PPCG style diagonalization

     ethr =  4.17E-15,  avg # of iterations = 19.4

     total cpu time spent up to now is       24.6 secs

     End of band structure calculation

     Number of k-points >= 100: set verbosity='high' to print the bands.

     the Fermi energy is    10.8554 ev
     (compare with:    10.8554 eV, computed in scf)

     Writing output data file ./pwscf.save/
 
     init_run     :      0.03s CPU      0.05s WALL (       1 calls)
     electrons    :     22.90s CPU     24.09s WALL (       1 calls)

     Called by init_run:
     wfcinit      :      0.00s CPU      0.00s WALL (       1 calls)
     potinit      :      0.00s CPU      0.00s WALL (       1 calls)
     hinit0       :      0.02s CPU      0.03s WALL (       1 calls)

     Called by electrons:
     c_bands      :     22.90s CPU     24.08s WALL (       1 calls)
     v_of_rho     :      0.00s CPU      0.00s WALL (       1 calls)

     Called by c_bands:
     ppcg_k       :     21.78s CPU     22.90s WALL (     256 calls)
     wfcrot       :      1.03s CPU      1.09s WALL (     256 calls)

     Called by ppcg_*:
     h_psi        :     16.99s CPU     17.88s WALL (    5632 calls)

     Called by h_psi:
     vloc_psi     :     16.95s CPU     17.84s WALL (    5632 calls)

     General routines
     fft          :      0.02s CPU      0.03s WALL (      10 calls)
     fftw         :     15.95s CPU     16.79s WALL (  250644 calls)
     davcio       :      0.04s CPU      0.04s WALL (     512 calls)
 
     Parallel routines
     fft_scatt_xy :      1.44s CPU      1.52s WALL (  250654 calls)
     fft_scatt_yz :      7.45s CPU      7.84s WALL (  250654 calls)
 
     PWSCF        :     23.67s CPU     25.79s WALL

 
   This run was terminated on:  17:16:58  28May2020            

=------------------------------------------------------------------------------=
   JOB DONE.
=------------------------------------------------------------------------------=
