mpi;Time-Profile;efficiency;Dipoles;Xo;X;Self energy;Other
48;2636.0;100.0;5.2305;1989.0;2.9782;621.6385;17.152799999999843
192;748.0;88.10160427807486;4.1213;562.3114;3.2787;166.89999999999998;11.388599999999968
384;457.0;72.10065645514223;3.8035;347.1282;3.1097;87.8896;15.069000000000017
480;374.0;70.4812834224599;6.52;283.2835;3.2963;67.8161;13.084100000000007
576;294.0;74.71655328798187;5.0756;213.929;2.996;58.0386;13.960799999999992
672;294.0;64.04275996112732;5.524;214.0281;3.1411;52.4837;18.82310000000001
768;281.0;58.629893238434164;5.3548;204.6275;3.3821;45.5725;22.0631
