
# ncores         MPI     threads      cutoff         dip          Xo    Xo_REDUX           X     X_REDUX        io_X       io_WF   WALL_TIME
      12          12           1     9m9.00s    3m14.00s       2h49m      51.00s       6.00s       1.00s       1.00s      16.00s   03h04m09s

# ncores         MPI     threads      cutoff     dip_TOT      Xo_TOT       X_TOT        io_X       io_WF   WALL_TIME
      12          12           1         549         194       10191           7           1          16       11049

# ncores         MPI     threads         dip        io_X       io_WF       Sgm_x     (REDUX)       Sgm_c     (REDUX)   WALL_TIME
      12          12           1       0.00s       2.00s       4.00s    5m17.00s       0.00s       1h26m     1m1.00s   01h33m02s

# ncores         MPI     threads     dip_TOT        io_X       io_WF   Sgm_x_TOT   Sgm_c_TOT   WALL_TIME
      12          12           1           0           2           4         317        5221        5582
