         576 atomicd0
surface           48.000000           15.540000          254.720000
C            24.283430           14.999974            1.336109
C            19.606224           14.999979            1.326638
C            28.961906           14.999975            1.326510
C            15.119092           15.000068            1.167809
C            33.447121           15.000059            1.167802
C            21.952538           14.999974            2.651346
C            26.615573           14.999973            2.651207
C            17.267466           15.000002            2.670635
C            31.298860           14.999997            2.670781
C            21.952540           14.999974            5.308698
C            26.615572           14.999973            5.308833
C            17.267473           15.000002            5.289363
C            31.298855           14.999996            5.289214
C            24.283430           14.999974            6.623939
C            19.606223           14.999980            6.633387
C            28.961907           14.999974            6.633510
C            15.119056           15.000068            6.792121
C            33.447160           15.000059            6.792123
C            24.283430           14.999974            9.296109
C            19.606224           14.999979            9.286638
C            28.961906           14.999975            9.286510
C            15.119092           15.000068            9.127809
C            33.447121           15.000059            9.127802
C            21.952538           14.999974           10.611346
C            26.615573           14.999973           10.611207
C            17.267466           15.000002           10.630635
C            31.298860           14.999997           10.630781
C            21.952540           14.999974           13.268698
C            26.615572           14.999973           13.268833
C            17.267473           15.000002           13.249363
C            31.298855           14.999996           13.249214
C            24.283430           14.999974           14.583939
C            19.606223           14.999980           14.593387
C            28.961907           14.999974           14.593510
C            15.119056           15.000068           14.752121
C            33.447160           15.000059           14.752123
C            24.283430           14.999974           17.256109
C            19.606224           14.999979           17.246638
C            28.961906           14.999975           17.246510
C            15.119092           15.000068           17.087809
C            33.447121           15.000059           17.087802
C            21.952538           14.999974           18.571346
C            26.615573           14.999973           18.571207
C            17.267466           15.000002           18.590635
C            31.298860           14.999997           18.590781
C            21.952540           14.999974           21.228698
C            26.615572           14.999973           21.228833
C            17.267473           15.000002           21.209363
C            31.298855           14.999996           21.209214
C            24.283430           14.999974           22.543939
C            19.606223           14.999980           22.553387
C            28.961907           14.999974           22.553510
C            15.119056           15.000068           22.712121
C            33.447160           15.000059           22.712123
C            24.283430           14.999974           25.216109
C            19.606224           14.999979           25.206638
C            28.961906           14.999975           25.206510
C            15.119092           15.000068           25.047809
C            33.447121           15.000059           25.047802
C            21.952538           14.999974           26.531346
C            26.615573           14.999973           26.531207
C            17.267466           15.000002           26.550635
C            31.298860           14.999997           26.550781
C            21.952540           14.999974           29.188698
C            26.615572           14.999973           29.188833
C            17.267473           15.000002           29.169363
C            31.298855           14.999996           29.169214
C            24.283430           14.999974           30.503939
C            19.606223           14.999980           30.513387
C            28.961907           14.999974           30.513510
C            15.119056           15.000068           30.672121
C            33.447160           15.000059           30.672123
C            24.283430           14.999974           33.176109
C            19.606224           14.999979           33.166638
C            28.961906           14.999975           33.166510
C            15.119092           15.000068           33.007809
C            33.447121           15.000059           33.007802
C            21.952538           14.999974           34.491346
C            26.615573           14.999973           34.491207
C            17.267466           15.000002           34.510635
C            31.298860           14.999997           34.510781
C            21.952540           14.999974           37.148698
C            26.615572           14.999973           37.148833
C            17.267473           15.000002           37.129363
C            31.298855           14.999996           37.129214
C            24.283430           14.999974           38.463939
C            19.606223           14.999980           38.473387
C            28.961907           14.999974           38.473510
C            15.119056           15.000068           38.632121
C            33.447160           15.000059           38.632123
C            24.283430           14.999974           41.136109
C            19.606224           14.999979           41.126638
C            28.961906           14.999975           41.126510
C            15.119092           15.000068           40.967809
C            33.447121           15.000059           40.967802
C            21.952538           14.999974           42.451346
C            26.615573           14.999973           42.451207
C            17.267466           15.000002           42.470635
C            31.298860           14.999997           42.470781
C            21.952540           14.999974           45.108698
C            26.615572           14.999973           45.108833
C            17.267473           15.000002           45.089363
C            31.298855           14.999996           45.089214
C            24.283430           14.999974           46.423939
C            19.606223           14.999980           46.433387
C            28.961907           14.999974           46.433510
C            15.119056           15.000068           46.592121
C            33.447160           15.000059           46.592123
C            24.283430           14.999974           49.096109
C            19.606224           14.999979           49.086638
C            28.961906           14.999975           49.086510
C            15.119092           15.000068           48.927809
C            33.447121           15.000059           48.927802
C            21.952538           14.999974           50.411346
C            26.615573           14.999973           50.411207
C            17.267466           15.000002           50.430635
C            31.298860           14.999997           50.430781
C            21.952540           14.999974           53.068698
C            26.615572           14.999973           53.068833
C            17.267473           15.000002           53.049363
C            31.298855           14.999996           53.049214
C            24.283430           14.999974           54.383939
C            19.606223           14.999980           54.393387
C            28.961907           14.999974           54.393510
C            15.119056           15.000068           54.552121
C            33.447160           15.000059           54.552123
C            24.283430           14.999974           57.056109
C            19.606224           14.999979           57.046638
C            28.961906           14.999975           57.046510
C            15.119092           15.000068           56.887809
C            33.447121           15.000059           56.887802
C            21.952538           14.999974           58.371346
C            26.615573           14.999973           58.371207
C            17.267466           15.000002           58.390635
C            31.298860           14.999997           58.390781
C            21.952540           14.999974           61.028698
C            26.615572           14.999973           61.028833
C            17.267473           15.000002           61.009363
C            31.298855           14.999996           61.009214
C            24.283430           14.999974           62.343939
C            19.606223           14.999980           62.353387
C            28.961907           14.999974           62.353510
C            15.119056           15.000068           62.512121
C            33.447160           15.000059           62.512123
C            24.283430           14.999974           65.016109
C            19.606224           14.999979           65.006638
C            28.961906           14.999975           65.006510
C            15.119092           15.000068           64.847809
C            33.447121           15.000059           64.847802
C            21.952538           14.999974           66.331346
C            26.615573           14.999973           66.331207
C            17.267466           15.000002           66.350635
C            31.298860           14.999997           66.350781
C            21.952540           14.999974           68.988698
C            26.615572           14.999973           68.988833
C            17.267473           15.000002           68.969363
C            31.298855           14.999996           68.969214
C            24.283430           14.999974           70.303939
C            19.606223           14.999980           70.313387
C            28.961907           14.999974           70.313510
C            15.119056           15.000068           70.472121
C            33.447160           15.000059           70.472123
C            24.283430           14.999974           72.976109
C            19.606224           14.999979           72.966638
C            28.961906           14.999975           72.966510
C            15.119092           15.000068           72.807809
C            33.447121           15.000059           72.807802
C            21.952538           14.999974           74.291346
C            26.615573           14.999973           74.291207
C            17.267466           15.000002           74.310635
C            31.298860           14.999997           74.310781
C            21.952540           14.999974           76.948698
C            26.615572           14.999973           76.948833
C            17.267473           15.000002           76.929363
C            31.298855           14.999996           76.929214
C            24.283430           14.999974           78.263939
C            19.606223           14.999980           78.273387
C            28.961907           14.999974           78.273510
C            15.119056           15.000068           78.432121
C            33.447160           15.000059           78.432123
C            24.283430           14.999974           80.936109
C            19.606224           14.999979           80.926638
C            28.961906           14.999975           80.926510
C            15.119092           15.000068           80.767809
C            33.447121           15.000059           80.767802
C            21.952538           14.999974           82.251346
C            26.615573           14.999973           82.251207
C            17.267466           15.000002           82.270635
C            31.298860           14.999997           82.270781
C            21.952540           14.999974           84.908698
C            26.615572           14.999973           84.908833
C            17.267473           15.000002           84.889363
C            31.298855           14.999996           84.889214
C            24.283430           14.999974           86.223939
C            19.606223           14.999980           86.233387
C            28.961907           14.999974           86.233510
C            15.119056           15.000068           86.392121
C            33.447160           15.000059           86.392123
C            24.283430           14.999974           88.896109
C            19.606224           14.999979           88.886638
C            28.961906           14.999975           88.886510
C            15.119092           15.000068           88.727809
C            33.447121           15.000059           88.727802
C            21.952538           14.999974           90.211346
C            26.615573           14.999973           90.211207
C            17.267466           15.000002           90.230635
C            31.298860           14.999997           90.230781
C            21.952540           14.999974           92.868698
C            26.615572           14.999973           92.868833
C            17.267473           15.000002           92.849363
C            31.298855           14.999996           92.849214
C            24.283430           14.999974           94.183939
C            19.606223           14.999980           94.193387
C            28.961907           14.999974           94.193510
C            15.119056           15.000068           94.352121
C            33.447160           15.000059           94.352123
C            24.283430           14.999974           96.856109
C            19.606224           14.999979           96.846638
C            28.961906           14.999975           96.846510
C            15.119092           15.000068           96.687809
C            33.447121           15.000059           96.687802
C            21.952538           14.999974           98.171346
C            26.615573           14.999973           98.171207
C            17.267466           15.000002           98.190635
C            31.298860           14.999997           98.190781
C            21.952540           14.999974          100.828698
C            26.615572           14.999973          100.828833
C            17.267473           15.000002          100.809363
C            31.298855           14.999996          100.809214
C            24.283430           14.999974          102.143939
C            19.606223           14.999980          102.153387
C            28.961907           14.999974          102.153510
C            15.119056           15.000068          102.312121
C            33.447160           15.000059          102.312123
C            24.283430           14.999974          104.816109
C            19.606224           14.999979          104.806638
C            28.961906           14.999975          104.806510
C            15.119092           15.000068          104.647809
C            33.447121           15.000059          104.647802
C            21.952538           14.999974          106.131346
C            26.615573           14.999973          106.131207
C            17.267466           15.000002          106.150635
C            31.298860           14.999997          106.150781
C            21.952540           14.999974          108.788698
C            26.615572           14.999973          108.788833
C            17.267473           15.000002          108.769363
C            31.298855           14.999996          108.769214
C            24.283430           14.999974          110.103939
C            19.606223           14.999980          110.113387
C            28.961907           14.999974          110.113510
C            15.119056           15.000068          110.272121
C            33.447160           15.000059          110.272123
C            24.283430           14.999974          112.776109
C            19.606224           14.999979          112.766638
C            28.961906           14.999975          112.766510
C            15.119092           15.000068          112.607809
C            33.447121           15.000059          112.607802
C            21.952538           14.999974          114.091346
C            26.615573           14.999973          114.091207
C            17.267466           15.000002          114.110635
C            31.298860           14.999997          114.110781
C            21.952540           14.999974          116.748698
C            26.615572           14.999973          116.748833
C            17.267473           15.000002          116.729363
C            31.298855           14.999996          116.729214
C            24.283430           14.999974          118.063939
C            19.606223           14.999980          118.073387
C            28.961907           14.999974          118.073510
C            15.119056           15.000068          118.232121
C            33.447160           15.000059          118.232123
C            24.283430           14.999974          120.736109
C            19.606224           14.999979          120.726638
C            28.961906           14.999975          120.726510
C            15.119092           15.000068          120.567809
C            33.447121           15.000059          120.567802
C            21.952538           14.999974          122.051346
C            26.615573           14.999973          122.051207
C            17.267466           15.000002          122.070635
C            31.298860           14.999997          122.070781
C            21.952540           14.999974          124.708698
C            26.615572           14.999973          124.708833
C            17.267473           15.000002          124.689363
C            31.298855           14.999996          124.689214
C            24.283430           14.999974          126.023939
C            19.606223           14.999980          126.033387
C            28.961907           14.999974          126.033510
C            15.119056           15.000068          126.192121
C            33.447160           15.000059          126.192123
C            24.283430           14.999974          128.696109
C            19.606224           14.999979          128.686638
C            28.961906           14.999975          128.686510
C            15.119092           15.000068          128.527809
C            33.447121           15.000059          128.527802
C            21.952538           14.999974          130.011346
C            26.615573           14.999973          130.011207
C            17.267466           15.000002          130.030635
C            31.298860           14.999997          130.030781
C            21.952540           14.999974          132.668698
C            26.615572           14.999973          132.668833
C            17.267473           15.000002          132.649363
C            31.298855           14.999996          132.649214
C            24.283430           14.999974          133.983939
C            19.606223           14.999980          133.993387
C            28.961907           14.999974          133.993510
C            15.119056           15.000068          134.152121
C            33.447160           15.000059          134.152123
C            24.283430           14.999974          136.656109
C            19.606224           14.999979          136.646638
C            28.961906           14.999975          136.646510
C            15.119092           15.000068          136.487809
C            33.447121           15.000059          136.487802
C            21.952538           14.999974          137.971346
C            26.615573           14.999973          137.971207
C            17.267466           15.000002          137.990635
C            31.298860           14.999997          137.990781
C            21.952540           14.999974          140.628698
C            26.615572           14.999973          140.628833
C            17.267473           15.000002          140.609363
C            31.298855           14.999996          140.609214
C            24.283430           14.999974          141.943939
C            19.606223           14.999980          141.953387
C            28.961907           14.999974          141.953510
C            15.119056           15.000068          142.112121
C            33.447160           15.000059          142.112123
C            24.283430           14.999974          144.616109
C            19.606224           14.999979          144.606638
C            28.961906           14.999975          144.606510
C            15.119092           15.000068          144.447809
C            33.447121           15.000059          144.447802
C            21.952538           14.999974          145.931346
C            26.615573           14.999973          145.931207
C            17.267466           15.000002          145.950635
C            31.298860           14.999997          145.950781
C            21.952540           14.999974          148.588698
C            26.615572           14.999973          148.588833
C            17.267473           15.000002          148.569363
C            31.298855           14.999996          148.569214
C            24.283430           14.999974          149.903939
C            19.606223           14.999980          149.913387
C            28.961907           14.999974          149.913510
C            15.119056           15.000068          150.072121
C            33.447160           15.000059          150.072123
C            24.283430           14.999974          152.576109
C            19.606224           14.999979          152.566638
C            28.961906           14.999975          152.566510
C            15.119092           15.000068          152.407809
C            33.447121           15.000059          152.407802
C            21.952538           14.999974          153.891346
C            26.615573           14.999973          153.891207
C            17.267466           15.000002          153.910635
C            31.298860           14.999997          153.910781
C            21.952540           14.999974          156.548698
C            26.615572           14.999973          156.548833
C            17.267473           15.000002          156.529363
C            31.298855           14.999996          156.529214
C            24.283430           14.999974          157.863939
C            19.606223           14.999980          157.873387
C            28.961907           14.999974          157.873510
C            15.119056           15.000068          158.032121
C            33.447160           15.000059          158.032123
C            24.283430           14.999974          160.536109
C            19.606224           14.999979          160.526638
C            28.961906           14.999975          160.526510
C            15.119092           15.000068          160.367809
C            33.447121           15.000059          160.367802
C            21.952538           14.999974          161.851346
C            26.615573           14.999973          161.851207
C            17.267466           15.000002          161.870635
C            31.298860           14.999997          161.870781
C            21.952540           14.999974          164.508698
C            26.615572           14.999973          164.508833
C            17.267473           15.000002          164.489363
C            31.298855           14.999996          164.489214
C            24.283430           14.999974          165.823939
C            19.606223           14.999980          165.833387
C            28.961907           14.999974          165.833510
C            15.119056           15.000068          165.992121
C            33.447160           15.000059          165.992123
C            24.283430           14.999974          168.496109
C            19.606224           14.999979          168.486638
C            28.961906           14.999975          168.486510
C            15.119092           15.000068          168.327809
C            33.447121           15.000059          168.327802
C            21.952538           14.999974          169.811346
C            26.615573           14.999973          169.811207
C            17.267466           15.000002          169.830635
C            31.298860           14.999997          169.830781
C            21.952540           14.999974          172.468698
C            26.615572           14.999973          172.468833
C            17.267473           15.000002          172.449363
C            31.298855           14.999996          172.449214
C            24.283430           14.999974          173.783939
C            19.606223           14.999980          173.793387
C            28.961907           14.999974          173.793510
C            15.119056           15.000068          173.952121
C            33.447160           15.000059          173.952123
C            24.283430           14.999974          176.456109
C            19.606224           14.999979          176.446638
C            28.961906           14.999975          176.446510
C            15.119092           15.000068          176.287809
C            33.447121           15.000059          176.287802
C            21.952538           14.999974          177.771346
C            26.615573           14.999973          177.771207
C            17.267466           15.000002          177.790635
C            31.298860           14.999997          177.790781
C            21.952540           14.999974          180.428698
C            26.615572           14.999973          180.428833
C            17.267473           15.000002          180.409363
C            31.298855           14.999996          180.409214
C            24.283430           14.999974          181.743939
C            19.606223           14.999980          181.753387
C            28.961907           14.999974          181.753510
C            15.119056           15.000068          181.912121
C            33.447160           15.000059          181.912123
C            24.283430           14.999974          184.416109
C            19.606224           14.999979          184.406638
C            28.961906           14.999975          184.406510
C            15.119092           15.000068          184.247809
C            33.447121           15.000059          184.247802
C            21.952538           14.999974          185.731346
C            26.615573           14.999973          185.731207
C            17.267466           15.000002          185.750635
C            31.298860           14.999997          185.750781
C            21.952540           14.999974          188.388698
C            26.615572           14.999973          188.388833
C            17.267473           15.000002          188.369363
C            31.298855           14.999996          188.369214
C            24.283430           14.999974          189.703939
C            19.606223           14.999980          189.713387
C            28.961907           14.999974          189.713510
C            15.119056           15.000068          189.872121
C            33.447160           15.000059          189.872123
C            24.283430           14.999974          192.376109
C            19.606224           14.999979          192.366638
C            28.961906           14.999975          192.366510
C            15.119092           15.000068          192.207809
C            33.447121           15.000059          192.207802
C            21.952538           14.999974          193.691346
C            26.615573           14.999973          193.691207
C            17.267466           15.000002          193.710635
C            31.298860           14.999997          193.710781
C            21.952540           14.999974          196.348698
C            26.615572           14.999973          196.348833
C            17.267473           15.000002          196.329363
C            31.298855           14.999996          196.329214
C            24.283430           14.999974          197.663939
C            19.606223           14.999980          197.673387
C            28.961907           14.999974          197.673510
C            15.119056           15.000068          197.832121
C            33.447160           15.000059          197.832123
C            24.283430           14.999974          200.336109
C            19.606224           14.999979          200.326638
C            28.961906           14.999975          200.326510
C            15.119092           15.000068          200.167809
C            33.447121           15.000059          200.167802
C            21.952538           14.999974          201.651346
C            26.615573           14.999973          201.651207
C            17.267466           15.000002          201.670635
C            31.298860           14.999997          201.670781
C            21.952540           14.999974          204.308698
C            26.615572           14.999973          204.308833
C            17.267473           15.000002          204.289363
C            31.298855           14.999996          204.289214
C            24.283430           14.999974          205.623939
C            19.606223           14.999980          205.633387
C            28.961907           14.999974          205.633510
C            15.119056           15.000068          205.792121
C            33.447160           15.000059          205.792123
C            24.283430           14.999974          208.296109
C            19.606224           14.999979          208.286638
C            28.961906           14.999975          208.286510
C            15.119092           15.000068          208.127809
C            33.447121           15.000059          208.127802
C            21.952538           14.999974          209.611346
C            26.615573           14.999973          209.611207
C            17.267466           15.000002          209.630635
C            31.298860           14.999997          209.630781
C            21.952540           14.999974          212.268698
C            26.615572           14.999973          212.268833
C            17.267473           15.000002          212.249363
C            31.298855           14.999996          212.249214
C            24.283430           14.999974          213.583939
C            19.606223           14.999980          213.593387
C            28.961907           14.999974          213.593510
C            15.119056           15.000068          213.752121
C            33.447160           15.000059          213.752123
C            24.283430           14.999974          216.256109
C            19.606224           14.999979          216.246638
C            28.961906           14.999975          216.246510
C            15.119092           15.000068          216.087809
C            33.447121           15.000059          216.087802
C            21.952538           14.999974          217.571346
C            26.615573           14.999973          217.571207
C            17.267466           15.000002          217.590635
C            31.298860           14.999997          217.590781
C            21.952540           14.999974          220.228698
C            26.615572           14.999973          220.228833
C            17.267473           15.000002          220.209363
C            31.298855           14.999996          220.209214
C            24.283430           14.999974          221.543939
C            19.606223           14.999980          221.553387
C            28.961907           14.999974          221.553510
C            15.119056           15.000068          221.712121
C            33.447160           15.000059          221.712123
C            24.283430           14.999974          224.216109
C            19.606224           14.999979          224.206638
C            28.961906           14.999975          224.206510
C            15.119092           15.000068          224.047809
C            33.447121           15.000059          224.047802
C            21.952538           14.999974          225.531346
C            26.615573           14.999973          225.531207
C            17.267466           15.000002          225.550635
C            31.298860           14.999997          225.550781
C            21.952540           14.999974          228.188698
C            26.615572           14.999973          228.188833
C            17.267473           15.000002          228.169363
C            31.298855           14.999996          228.169214
C            24.283430           14.999974          229.503939
C            19.606223           14.999980          229.513387
C            28.961907           14.999974          229.513510
C            15.119056           15.000068          229.672121
C            33.447160           15.000059          229.672123
C            24.283430           14.999974          232.176109
C            19.606224           14.999979          232.166638
C            28.961906           14.999975          232.166510
C            15.119092           15.000068          232.007809
C            33.447121           15.000059          232.007802
C            21.952538           14.999974          233.491346
C            26.615573           14.999973          233.491207
C            17.267466           15.000002          233.510635
C            31.298860           14.999997          233.510781
C            21.952540           14.999974          236.148698
C            26.615572           14.999973          236.148833
C            17.267473           15.000002          236.129363
C            31.298855           14.999996          236.129214
C            24.283430           14.999974          237.463939
C            19.606223           14.999980          237.473387
C            28.961907           14.999974          237.473510
C            15.119056           15.000068          237.632121
C            33.447160           15.000059          237.632123
C            24.283430           14.999974          240.136109
C            19.606224           14.999979          240.126638
C            28.961906           14.999975          240.126510
C            15.119092           15.000068          239.967809
C            33.447121           15.000059          239.967802
C            21.952538           14.999974          241.451346
C            26.615573           14.999973          241.451207
C            17.267466           15.000002          241.470635
C            31.298860           14.999997          241.470781
C            21.952540           14.999974          244.108698
C            26.615572           14.999973          244.108833
C            17.267473           15.000002          244.089363
C            31.298855           14.999996          244.089214
C            24.283430           14.999974          245.423939
C            19.606223           14.999980          245.433387
C            28.961907           14.999974          245.433510
C            15.119056           15.000068          245.592121
C            33.447160           15.000059          245.592123
C            24.283430           14.999974          248.096109
C            19.606224           14.999979          248.086638
C            28.961906           14.999975          248.086510
C            15.119092           15.000068          247.927809
C            33.447121           15.000059          247.927802
C            21.952538           14.999974          249.411346
C            26.615573           14.999973          249.411207
C            17.267466           15.000002          249.430635
C            31.298860           14.999997          249.430781
C            21.952540           14.999974          252.068698
C            26.615572           14.999973          252.068833
C            17.267473           15.000002          252.049363
C            31.298855           14.999996          252.049214
C            24.283430           14.999974          253.383939
C            19.606223           14.999980          253.393387
C            28.961907           14.999974          253.393510
C            15.119056           15.000068          253.552121
C            33.447160           15.000059          253.552123
