   324  atomicd0  -8.95805339447645019E+03 (Ha)  Geometry + metaData forces
periodic  3.07389065399999986E+01  3.07389065399999986E+01  3.07389065399999986E+01  {reduced: Yes, format: xyz, source: uo2_3.xyz}
 U  5.12315109000000124E+00  5.12315109000000124E+00  5.12315109000000124E+00
 U  5.12315109000000124E+00  0.00000000000000000E+00  0.00000000000000000E+00
 U  0.00000000000000000E+00  0.00000000000000000E+00  5.12315109000000124E+00
 U  0.00000000000000000E+00  5.12315109000000124E+00  0.00000000000000000E+00
 O  7.68472663499999964E+00  2.56157554499999884E+00  7.68472663499999964E+00
 O  2.56157554499999884E+00  2.56157554499999884E+00  2.56157554499999884E+00
 O  7.68472663499999964E+00  7.68472663499999964E+00  2.56157554499999884E+00
 O  7.68472663499999964E+00  2.56157554499999884E+00  2.56157554499999884E+00
 O  7.68472663499999964E+00  7.68472663499999964E+00  7.68472663499999964E+00
 O  2.56157554499999884E+00  7.68472663499999964E+00  2.56157554499999884E+00
 O  2.56157554499999884E+00  2.56157554499999884E+00  7.68472663499999964E+00
 O  2.56157554499999884E+00  7.68472663499999964E+00  7.68472663499999964E+00
 U  1.53694532699999993E+01  5.12315109000000124E+00  5.12315109000000124E+00
 U  1.53694532699999993E+01  0.00000000000000000E+00  0.00000000000000000E+00
 U  1.02463021799999989E+01  0.00000000000000000E+00  5.12315109000000124E+00
 U  1.02463021799999989E+01  5.12315109000000124E+00  0.00000000000000000E+00
 O  1.79310288149999977E+01  2.56157554499999884E+00  7.68472663499999964E+00
 O  1.28078777249999973E+01  2.56157554499999884E+00  2.56157554499999884E+00
 O  1.79310288149999977E+01  7.68472663499999964E+00  2.56157554499999884E+00
 O  1.79310288149999977E+01  2.56157554499999884E+00  2.56157554499999884E+00
 O  1.79310288149999977E+01  7.68472663499999964E+00  7.68472663499999964E+00
 O  1.28078777249999973E+01  7.68472663499999964E+00  2.56157554499999884E+00
 O  1.28078777249999973E+01  2.56157554499999884E+00  7.68472663499999964E+00
 O  1.28078777249999973E+01  7.68472663499999964E+00  7.68472663499999964E+00
 U  2.56157554499999982E+01  5.12315109000000124E+00  5.12315109000000124E+00
 U  2.56157554499999982E+01  0.00000000000000000E+00  0.00000000000000000E+00
 U  2.04926043599999979E+01  0.00000000000000000E+00  5.12315109000000124E+00
 U  2.04926043599999979E+01  5.12315109000000124E+00  0.00000000000000000E+00
 O  2.81773309949999984E+01  2.56157554499999884E+00  7.68472663499999964E+00
 O  2.30541799049999980E+01  2.56157554499999884E+00  2.56157554499999884E+00
 O  2.81773309949999984E+01  7.68472663499999964E+00  2.56157554499999884E+00
 O  2.81773309949999984E+01  2.56157554499999884E+00  2.56157554499999884E+00
 O  2.81773309949999984E+01  7.68472663499999964E+00  7.68472663499999964E+00
 O  2.30541799049999980E+01  7.68472663499999964E+00  2.56157554499999884E+00
 O  2.30541799049999980E+01  2.56157554499999884E+00  7.68472663499999964E+00
 O  2.30541799049999980E+01  7.68472663499999964E+00  7.68472663499999964E+00
 U  5.12315109000000124E+00  1.53694532699999993E+01  5.12315109000000124E+00
 U  5.12315109000000124E+00  1.02463021799999989E+01  0.00000000000000000E+00
 U  0.00000000000000000E+00  1.02463021799999989E+01  5.12315109000000124E+00
 U  0.00000000000000000E+00  1.53694532699999993E+01  0.00000000000000000E+00
 O  7.68472663499999964E+00  1.28078777249999973E+01  7.68472663499999964E+00
 O  2.56157554499999884E+00  1.28078777249999973E+01  2.56157554499999884E+00
 O  7.68472663499999964E+00  1.79310288149999977E+01  2.56157554499999884E+00
 O  7.68472663499999964E+00  1.28078777249999973E+01  2.56157554499999884E+00
 O  7.68472663499999964E+00  1.79310288149999977E+01  7.68472663499999964E+00
 O  2.56157554499999884E+00  1.79310288149999977E+01  2.56157554499999884E+00
 O  2.56157554499999884E+00  1.28078777249999973E+01  7.68472663499999964E+00
 O  2.56157554499999884E+00  1.79310288149999977E+01  7.68472663499999964E+00
 U  1.53694532699999993E+01  1.53694532699999993E+01  5.12315109000000124E+00
 U  1.53694532699999993E+01  1.02463021799999989E+01  0.00000000000000000E+00
 U  1.02463021799999989E+01  1.02463021799999989E+01  5.12315109000000124E+00
 U  1.02463021799999989E+01  1.53694532699999993E+01  0.00000000000000000E+00
 O  1.79310288149999977E+01  1.28078777249999973E+01  7.68472663499999964E+00
 O  1.28078777249999973E+01  1.28078777249999973E+01  2.56157554499999884E+00
 O  1.79310288149999977E+01  1.79310288149999977E+01  2.56157554499999884E+00
 O  1.79310288149999977E+01  1.28078777249999973E+01  2.56157554499999884E+00
 O  1.79310288149999977E+01  1.79310288149999977E+01  7.68472663499999964E+00
 O  1.28078777249999973E+01  1.79310288149999977E+01  2.56157554499999884E+00
 O  1.28078777249999973E+01  1.28078777249999973E+01  7.68472663499999964E+00
 O  1.28078777249999973E+01  1.79310288149999977E+01  7.68472663499999964E+00
 U  2.56157554499999982E+01  1.53694532699999993E+01  5.12315109000000124E+00
 U  2.56157554499999982E+01  1.02463021799999989E+01  0.00000000000000000E+00
 U  2.04926043599999979E+01  1.02463021799999989E+01  5.12315109000000124E+00
 U  2.04926043599999979E+01  1.53694532699999993E+01  0.00000000000000000E+00
 O  2.81773309949999984E+01  1.28078777249999973E+01  7.68472663499999964E+00
 O  2.30541799049999980E+01  1.28078777249999973E+01  2.56157554499999884E+00
 O  2.81773309949999984E+01  1.79310288149999977E+01  2.56157554499999884E+00
 O  2.81773309949999984E+01  1.28078777249999973E+01  2.56157554499999884E+00
 O  2.81773309949999984E+01  1.79310288149999977E+01  7.68472663499999964E+00
 O  2.30541799049999980E+01  1.79310288149999977E+01  2.56157554499999884E+00
 O  2.30541799049999980E+01  1.28078777249999973E+01  7.68472663499999964E+00
 O  2.30541799049999980E+01  1.79310288149999977E+01  7.68472663499999964E+00
 U  5.12315109000000124E+00  2.56157554499999982E+01  5.12315109000000124E+00
 U  5.12315109000000124E+00  2.04926043599999979E+01  0.00000000000000000E+00
 U  0.00000000000000000E+00  2.04926043599999979E+01  5.12315109000000124E+00
 U  0.00000000000000000E+00  2.56157554499999982E+01  0.00000000000000000E+00
 O  7.68472663499999964E+00  2.30541799049999980E+01  7.68472663499999964E+00
 O  2.56157554499999884E+00  2.30541799049999980E+01  2.56157554499999884E+00
 O  7.68472663499999964E+00  2.81773309949999984E+01  2.56157554499999884E+00
 O  7.68472663499999964E+00  2.30541799049999980E+01  2.56157554499999884E+00
 O  7.68472663499999964E+00  2.81773309949999984E+01  7.68472663499999964E+00
 O  2.56157554499999884E+00  2.81773309949999984E+01  2.56157554499999884E+00
 O  2.56157554499999884E+00  2.30541799049999980E+01  7.68472663499999964E+00
 O  2.56157554499999884E+00  2.81773309949999984E+01  7.68472663499999964E+00
 U  1.53694532699999993E+01  2.56157554499999982E+01  5.12315109000000124E+00
 U  1.53694532699999993E+01  2.04926043599999979E+01  0.00000000000000000E+00
 U  1.02463021799999989E+01  2.04926043599999979E+01  5.12315109000000124E+00
 U  1.02463021799999989E+01  2.56157554499999982E+01  0.00000000000000000E+00
 O  1.79310288149999977E+01  2.30541799049999980E+01  7.68472663499999964E+00
 O  1.28078777249999973E+01  2.30541799049999980E+01  2.56157554499999884E+00
 O  1.79310288149999977E+01  2.81773309949999984E+01  2.56157554499999884E+00
 O  1.79310288149999977E+01  2.30541799049999980E+01  2.56157554499999884E+00
 O  1.79310288149999977E+01  2.81773309949999984E+01  7.68472663499999964E+00
 O  1.28078777249999973E+01  2.81773309949999984E+01  2.56157554499999884E+00
 O  1.28078777249999973E+01  2.30541799049999980E+01  7.68472663499999964E+00
 O  1.28078777249999973E+01  2.81773309949999984E+01  7.68472663499999964E+00
 U  2.56157554499999982E+01  2.56157554499999982E+01  5.12315109000000124E+00
 U  2.56157554499999982E+01  2.04926043599999979E+01  0.00000000000000000E+00
 U  2.04926043599999979E+01  2.04926043599999979E+01  5.12315109000000124E+00
 U  2.04926043599999979E+01  2.56157554499999982E+01  0.00000000000000000E+00
 O  2.81773309949999984E+01  2.30541799049999980E+01  7.68472663499999964E+00
 O  2.30541799049999980E+01  2.30541799049999980E+01  2.56157554499999884E+00
 O  2.81773309949999984E+01  2.81773309949999984E+01  2.56157554499999884E+00
 O  2.81773309949999984E+01  2.30541799049999980E+01  2.56157554499999884E+00
 O  2.81773309949999984E+01  2.81773309949999984E+01  7.68472663499999964E+00
 O  2.30541799049999980E+01  2.81773309949999984E+01  2.56157554499999884E+00
 O  2.30541799049999980E+01  2.30541799049999980E+01  7.68472663499999964E+00
 O  2.30541799049999980E+01  2.81773309949999984E+01  7.68472663499999964E+00
 U  5.12315109000000124E+00  5.12315109000000124E+00  1.53694532699999993E+01
 U  5.12315109000000124E+00  0.00000000000000000E+00  1.02463021799999989E+01
 U  0.00000000000000000E+00  0.00000000000000000E+00  1.53694532699999993E+01
 U  0.00000000000000000E+00  5.12315109000000124E+00  1.02463021799999989E+01
 O  7.68472663499999964E+00  2.56157554499999884E+00  1.79310288149999977E+01
 O  2.56157554499999884E+00  2.56157554499999884E+00  1.28078777249999973E+01
 O  7.68472663499999964E+00  7.68472663499999964E+00  1.28078777249999973E+01
 O  7.68472663499999964E+00  2.56157554499999884E+00  1.28078777249999973E+01
 O  7.68472663499999964E+00  7.68472663499999964E+00  1.79310288149999977E+01
 O  2.56157554499999884E+00  7.68472663499999964E+00  1.28078777249999973E+01
 O  2.56157554499999884E+00  2.56157554499999884E+00  1.79310288149999977E+01
 O  2.56157554499999884E+00  7.68472663499999964E+00  1.79310288149999977E+01
 U  1.53694532699999993E+01  5.12315109000000124E+00  1.53694532699999993E+01
 U  1.53694532699999993E+01  0.00000000000000000E+00  1.02463021799999989E+01
 U  1.02463021799999989E+01  0.00000000000000000E+00  1.53694532699999993E+01
 U  1.02463021799999989E+01  5.12315109000000124E+00  1.02463021799999989E+01
 O  1.79310288149999977E+01  2.56157554499999884E+00  1.79310288149999977E+01
 O  1.28078777249999973E+01  2.56157554499999884E+00  1.28078777249999973E+01
 O  1.79310288149999977E+01  7.68472663499999964E+00  1.28078777249999973E+01
 O  1.79310288149999977E+01  2.56157554499999884E+00  1.28078777249999973E+01
 O  1.79310288149999977E+01  7.68472663499999964E+00  1.79310288149999977E+01
 O  1.28078777249999973E+01  7.68472663499999964E+00  1.28078777249999973E+01
 O  1.28078777249999973E+01  2.56157554499999884E+00  1.79310288149999977E+01
 O  1.28078777249999973E+01  7.68472663499999964E+00  1.79310288149999977E+01
 U  2.56157554499999982E+01  5.12315109000000124E+00  1.53694532699999993E+01
 U  2.56157554499999982E+01  0.00000000000000000E+00  1.02463021799999989E+01
 U  2.04926043599999979E+01  0.00000000000000000E+00  1.53694532699999993E+01
 U  2.04926043599999979E+01  5.12315109000000124E+00  1.02463021799999989E+01
 O  2.81773309949999984E+01  2.56157554499999884E+00  1.79310288149999977E+01
 O  2.30541799049999980E+01  2.56157554499999884E+00  1.28078777249999973E+01
 O  2.81773309949999984E+01  7.68472663499999964E+00  1.28078777249999973E+01
 O  2.81773309949999984E+01  2.56157554499999884E+00  1.28078777249999973E+01
 O  2.81773309949999984E+01  7.68472663499999964E+00  1.79310288149999977E+01
 O  2.30541799049999980E+01  7.68472663499999964E+00  1.28078777249999973E+01
 O  2.30541799049999980E+01  2.56157554499999884E+00  1.79310288149999977E+01
 O  2.30541799049999980E+01  7.68472663499999964E+00  1.79310288149999977E+01
 U  5.12315109000000124E+00  1.53694532699999993E+01  1.53694532699999993E+01
 U  5.12315109000000124E+00  1.02463021799999989E+01  1.02463021799999989E+01
 U  0.00000000000000000E+00  1.02463021799999989E+01  1.53694532699999993E+01
 U  0.00000000000000000E+00  1.53694532699999993E+01  1.02463021799999989E+01
 O  7.68472663499999964E+00  1.28078777249999973E+01  1.79310288149999977E+01
 O  2.56157554499999884E+00  1.28078777249999973E+01  1.28078777249999973E+01
 O  7.68472663499999964E+00  1.79310288149999977E+01  1.28078777249999973E+01
 O  7.68472663499999964E+00  1.28078777249999973E+01  1.28078777249999973E+01
 O  7.68472663499999964E+00  1.79310288149999977E+01  1.79310288149999977E+01
 O  2.56157554499999884E+00  1.79310288149999977E+01  1.28078777249999973E+01
 O  2.56157554499999884E+00  1.28078777249999973E+01  1.79310288149999977E+01
 O  2.56157554499999884E+00  1.79310288149999977E+01  1.79310288149999977E+01
 U  1.53694532699999993E+01  1.53694532699999993E+01  1.53694532699999993E+01
 U  1.53694532699999993E+01  1.02463021799999989E+01  1.02463021799999989E+01
 U  1.02463021799999989E+01  1.02463021799999989E+01  1.53694532699999993E+01
 U  1.02463021799999989E+01  1.53694532699999993E+01  1.02463021799999989E+01
 O  1.79310288149999977E+01  1.28078777249999973E+01  1.79310288149999977E+01
 O  1.28078777249999973E+01  1.28078777249999973E+01  1.28078777249999973E+01
 O  1.79310288149999977E+01  1.79310288149999977E+01  1.28078777249999973E+01
 O  1.79310288149999977E+01  1.28078777249999973E+01  1.28078777249999973E+01
 O  1.79310288149999977E+01  1.79310288149999977E+01  1.79310288149999977E+01
 O  1.28078777249999973E+01  1.79310288149999977E+01  1.28078777249999973E+01
 O  1.28078777249999973E+01  1.28078777249999973E+01  1.79310288149999977E+01
 O  1.28078777249999973E+01  1.79310288149999977E+01  1.79310288149999977E+01
 U  2.56157554499999982E+01  1.53694532699999993E+01  1.53694532699999993E+01
 U  2.56157554499999982E+01  1.02463021799999989E+01  1.02463021799999989E+01
 U  2.04926043599999979E+01  1.02463021799999989E+01  1.53694532699999993E+01
 U  2.04926043599999979E+01  1.53694532699999993E+01  1.02463021799999989E+01
 O  2.81773309949999984E+01  1.28078777249999973E+01  1.79310288149999977E+01
 O  2.30541799049999980E+01  1.28078777249999973E+01  1.28078777249999973E+01
 O  2.81773309949999984E+01  1.79310288149999977E+01  1.28078777249999973E+01
 O  2.81773309949999984E+01  1.28078777249999973E+01  1.28078777249999973E+01
 O  2.81773309949999984E+01  1.79310288149999977E+01  1.79310288149999977E+01
 O  2.30541799049999980E+01  1.79310288149999977E+01  1.28078777249999973E+01
 O  2.30541799049999980E+01  1.28078777249999973E+01  1.79310288149999977E+01
 O  2.30541799049999980E+01  1.79310288149999977E+01  1.79310288149999977E+01
 U  5.12315109000000124E+00  2.56157554499999982E+01  1.53694532699999993E+01
 U  5.12315109000000124E+00  2.04926043599999979E+01  1.02463021799999989E+01
 U  0.00000000000000000E+00  2.04926043599999979E+01  1.53694532699999993E+01
 U  0.00000000000000000E+00  2.56157554499999982E+01  1.02463021799999989E+01
 O  7.68472663499999964E+00  2.30541799049999980E+01  1.79310288149999977E+01
 O  2.56157554499999884E+00  2.30541799049999980E+01  1.28078777249999973E+01
 O  7.68472663499999964E+00  2.81773309949999984E+01  1.28078777249999973E+01
 O  7.68472663499999964E+00  2.30541799049999980E+01  1.28078777249999973E+01
 O  7.68472663499999964E+00  2.81773309949999984E+01  1.79310288149999977E+01
 O  2.56157554499999884E+00  2.81773309949999984E+01  1.28078777249999973E+01
 O  2.56157554499999884E+00  2.30541799049999980E+01  1.79310288149999977E+01
 O  2.56157554499999884E+00  2.81773309949999984E+01  1.79310288149999977E+01
 U  1.53694532699999993E+01  2.56157554499999982E+01  1.53694532699999993E+01
 U  1.53694532699999993E+01  2.04926043599999979E+01  1.02463021799999989E+01
 U  1.02463021799999989E+01  2.04926043599999979E+01  1.53694532699999993E+01
 U  1.02463021799999989E+01  2.56157554499999982E+01  1.02463021799999989E+01
 O  1.79310288149999977E+01  2.30541799049999980E+01  1.79310288149999977E+01
 O  1.28078777249999973E+01  2.30541799049999980E+01  1.28078777249999973E+01
 O  1.79310288149999977E+01  2.81773309949999984E+01  1.28078777249999973E+01
 O  1.79310288149999977E+01  2.30541799049999980E+01  1.28078777249999973E+01
 O  1.79310288149999977E+01  2.81773309949999984E+01  1.79310288149999977E+01
 O  1.28078777249999973E+01  2.81773309949999984E+01  1.28078777249999973E+01
 O  1.28078777249999973E+01  2.30541799049999980E+01  1.79310288149999977E+01
 O  1.28078777249999973E+01  2.81773309949999984E+01  1.79310288149999977E+01
 U  2.56157554499999982E+01  2.56157554499999982E+01  1.53694532699999993E+01
 U  2.56157554499999982E+01  2.04926043599999979E+01  1.02463021799999989E+01
 U  2.04926043599999979E+01  2.04926043599999979E+01  1.53694532699999993E+01
 U  2.04926043599999979E+01  2.56157554499999982E+01  1.02463021799999989E+01
 O  2.81773309949999984E+01  2.30541799049999980E+01  1.79310288149999977E+01
 O  2.30541799049999980E+01  2.30541799049999980E+01  1.28078777249999973E+01
 O  2.81773309949999984E+01  2.81773309949999984E+01  1.28078777249999973E+01
 O  2.81773309949999984E+01  2.30541799049999980E+01  1.28078777249999973E+01
 O  2.81773309949999984E+01  2.81773309949999984E+01  1.79310288149999977E+01
 O  2.30541799049999980E+01  2.81773309949999984E+01  1.28078777249999973E+01
 O  2.30541799049999980E+01  2.30541799049999980E+01  1.79310288149999977E+01
 O  2.30541799049999980E+01  2.81773309949999984E+01  1.79310288149999977E+01
 U  5.12315109000000124E+00  5.12315109000000124E+00  2.56157554499999982E+01
 U  5.12315109000000124E+00  0.00000000000000000E+00  2.04926043599999979E+01
 U  0.00000000000000000E+00  0.00000000000000000E+00  2.56157554499999982E+01
 U  0.00000000000000000E+00  5.12315109000000124E+00  2.04926043599999979E+01
 O  7.68472663499999964E+00  2.56157554499999884E+00  2.81773309949999984E+01
 O  2.56157554499999884E+00  2.56157554499999884E+00  2.30541799049999980E+01
 O  7.68472663499999964E+00  7.68472663499999964E+00  2.30541799049999980E+01
 O  7.68472663499999964E+00  2.56157554499999884E+00  2.30541799049999980E+01
 O  7.68472663499999964E+00  7.68472663499999964E+00  2.81773309949999984E+01
 O  2.56157554499999884E+00  7.68472663499999964E+00  2.30541799049999980E+01
 O  2.56157554499999884E+00  2.56157554499999884E+00  2.81773309949999984E+01
 O  2.56157554499999884E+00  7.68472663499999964E+00  2.81773309949999984E+01
 U  1.53694532699999993E+01  5.12315109000000124E+00  2.56157554499999982E+01
 U  1.53694532699999993E+01  0.00000000000000000E+00  2.04926043599999979E+01
 U  1.02463021799999989E+01  0.00000000000000000E+00  2.56157554499999982E+01
 U  1.02463021799999989E+01  5.12315109000000124E+00  2.04926043599999979E+01
 O  1.79310288149999977E+01  2.56157554499999884E+00  2.81773309949999984E+01
 O  1.28078777249999973E+01  2.56157554499999884E+00  2.30541799049999980E+01
 O  1.79310288149999977E+01  7.68472663499999964E+00  2.30541799049999980E+01
 O  1.79310288149999977E+01  2.56157554499999884E+00  2.30541799049999980E+01
 O  1.79310288149999977E+01  7.68472663499999964E+00  2.81773309949999984E+01
 O  1.28078777249999973E+01  7.68472663499999964E+00  2.30541799049999980E+01
 O  1.28078777249999973E+01  2.56157554499999884E+00  2.81773309949999984E+01
 O  1.28078777249999973E+01  7.68472663499999964E+00  2.81773309949999984E+01
 U  2.56157554499999982E+01  5.12315109000000124E+00  2.56157554499999982E+01
 U  2.56157554499999982E+01  0.00000000000000000E+00  2.04926043599999979E+01
 U  2.04926043599999979E+01  0.00000000000000000E+00  2.56157554499999982E+01
 U  2.04926043599999979E+01  5.12315109000000124E+00  2.04926043599999979E+01
 O  2.81773309949999984E+01  2.56157554499999884E+00  2.81773309949999984E+01
 O  2.30541799049999980E+01  2.56157554499999884E+00  2.30541799049999980E+01
 O  2.81773309949999984E+01  7.68472663499999964E+00  2.30541799049999980E+01
 O  2.81773309949999984E+01  2.56157554499999884E+00  2.30541799049999980E+01
 O  2.81773309949999984E+01  7.68472663499999964E+00  2.81773309949999984E+01
 O  2.30541799049999980E+01  7.68472663499999964E+00  2.30541799049999980E+01
 O  2.30541799049999980E+01  2.56157554499999884E+00  2.81773309949999984E+01
 O  2.30541799049999980E+01  7.68472663499999964E+00  2.81773309949999984E+01
 U  5.12315109000000124E+00  1.53694532699999993E+01  2.56157554499999982E+01
 U  5.12315109000000124E+00  1.02463021799999989E+01  2.04926043599999979E+01
 U  0.00000000000000000E+00  1.02463021799999989E+01  2.56157554499999982E+01
 U  0.00000000000000000E+00  1.53694532699999993E+01  2.04926043599999979E+01
 O  7.68472663499999964E+00  1.28078777249999973E+01  2.81773309949999984E+01
 O  2.56157554499999884E+00  1.28078777249999973E+01  2.30541799049999980E+01
 O  7.68472663499999964E+00  1.79310288149999977E+01  2.30541799049999980E+01
 O  7.68472663499999964E+00  1.28078777249999973E+01  2.30541799049999980E+01
 O  7.68472663499999964E+00  1.79310288149999977E+01  2.81773309949999984E+01
 O  2.56157554499999884E+00  1.79310288149999977E+01  2.30541799049999980E+01
 O  2.56157554499999884E+00  1.28078777249999973E+01  2.81773309949999984E+01
 O  2.56157554499999884E+00  1.79310288149999977E+01  2.81773309949999984E+01
 U  1.53694532699999993E+01  1.53694532699999993E+01  2.56157554499999982E+01
 U  1.53694532699999993E+01  1.02463021799999989E+01  2.04926043599999979E+01
 U  1.02463021799999989E+01  1.02463021799999989E+01  2.56157554499999982E+01
 U  1.02463021799999989E+01  1.53694532699999993E+01  2.04926043599999979E+01
 O  1.79310288149999977E+01  1.28078777249999973E+01  2.81773309949999984E+01
 O  1.28078777249999973E+01  1.28078777249999973E+01  2.30541799049999980E+01
 O  1.79310288149999977E+01  1.79310288149999977E+01  2.30541799049999980E+01
 O  1.79310288149999977E+01  1.28078777249999973E+01  2.30541799049999980E+01
 O  1.79310288149999977E+01  1.79310288149999977E+01  2.81773309949999984E+01
 O  1.28078777249999973E+01  1.79310288149999977E+01  2.30541799049999980E+01
 O  1.28078777249999973E+01  1.28078777249999973E+01  2.81773309949999984E+01
 O  1.28078777249999973E+01  1.79310288149999977E+01  2.81773309949999984E+01
 U  2.56157554499999982E+01  1.53694532699999993E+01  2.56157554499999982E+01
 U  2.56157554499999982E+01  1.02463021799999989E+01  2.04926043599999979E+01
 U  2.04926043599999979E+01  1.02463021799999989E+01  2.56157554499999982E+01
 U  2.04926043599999979E+01  1.53694532699999993E+01  2.04926043599999979E+01
 O  2.81773309949999984E+01  1.28078777249999973E+01  2.81773309949999984E+01
 O  2.30541799049999980E+01  1.28078777249999973E+01  2.30541799049999980E+01
 O  2.81773309949999984E+01  1.79310288149999977E+01  2.30541799049999980E+01
 O  2.81773309949999984E+01  1.28078777249999973E+01  2.30541799049999980E+01
 O  2.81773309949999984E+01  1.79310288149999977E+01  2.81773309949999984E+01
 O  2.30541799049999980E+01  1.79310288149999977E+01  2.30541799049999980E+01
 O  2.30541799049999980E+01  1.28078777249999973E+01  2.81773309949999984E+01
 O  2.30541799049999980E+01  1.79310288149999977E+01  2.81773309949999984E+01
 U  5.12315109000000124E+00  2.56157554499999982E+01  2.56157554499999982E+01
 U  5.12315109000000124E+00  2.04926043599999979E+01  2.04926043599999979E+01
 U  0.00000000000000000E+00  2.04926043599999979E+01  2.56157554499999982E+01
 U  0.00000000000000000E+00  2.56157554499999982E+01  2.04926043599999979E+01
 O  7.68472663499999964E+00  2.30541799049999980E+01  2.81773309949999984E+01
 O  2.56157554499999884E+00  2.30541799049999980E+01  2.30541799049999980E+01
 O  7.68472663499999964E+00  2.81773309949999984E+01  2.30541799049999980E+01
 O  7.68472663499999964E+00  2.30541799049999980E+01  2.30541799049999980E+01
 O  7.68472663499999964E+00  2.81773309949999984E+01  2.81773309949999984E+01
 O  2.56157554499999884E+00  2.81773309949999984E+01  2.30541799049999980E+01
 O  2.56157554499999884E+00  2.30541799049999980E+01  2.81773309949999984E+01
 O  2.56157554499999884E+00  2.81773309949999984E+01  2.81773309949999984E+01
 U  1.53694532699999993E+01  2.56157554499999982E+01  2.56157554499999982E+01
 U  1.53694532699999993E+01  2.04926043599999979E+01  2.04926043599999979E+01
 U  1.02463021799999989E+01  2.04926043599999979E+01  2.56157554499999982E+01
 U  1.02463021799999989E+01  2.56157554499999982E+01  2.04926043599999979E+01
 O  1.79310288149999977E+01  2.30541799049999980E+01  2.81773309949999984E+01
 O  1.28078777249999973E+01  2.30541799049999980E+01  2.30541799049999980E+01
 O  1.79310288149999977E+01  2.81773309949999984E+01  2.30541799049999980E+01
 O  1.79310288149999977E+01  2.30541799049999980E+01  2.30541799049999980E+01
 O  1.79310288149999977E+01  2.81773309949999984E+01  2.81773309949999984E+01
 O  1.28078777249999973E+01  2.81773309949999984E+01  2.30541799049999980E+01
 O  1.28078777249999973E+01  2.30541799049999980E+01  2.81773309949999984E+01
 O  1.28078777249999973E+01  2.81773309949999984E+01  2.81773309949999984E+01
 U  2.56157554499999982E+01  2.56157554499999982E+01  2.56157554499999982E+01
 U  2.56157554499999982E+01  2.04926043599999979E+01  2.04926043599999979E+01
 U  2.04926043599999979E+01  2.04926043599999979E+01  2.56157554499999982E+01
 U  2.04926043599999979E+01  2.56157554499999982E+01  2.04926043599999979E+01
 O  2.81773309949999984E+01  2.30541799049999980E+01  2.81773309949999984E+01
 O  2.30541799049999980E+01  2.30541799049999980E+01  2.30541799049999980E+01
 O  2.81773309949999984E+01  2.81773309949999984E+01  2.30541799049999980E+01
 O  2.81773309949999984E+01  2.30541799049999980E+01  2.30541799049999980E+01
 O  2.81773309949999984E+01  2.81773309949999984E+01  2.81773309949999984E+01
 O  2.30541799049999980E+01  2.81773309949999984E+01  2.30541799049999980E+01
 O  2.30541799049999980E+01  2.30541799049999980E+01  2.81773309949999984E+01
 O  2.30541799049999980E+01  2.81773309949999984E+01  2.81773309949999984E+01
 forces
U      -8.43787343581735141E-21 -1.19938343837689508E-20 -1.87240429575756486E-20
U      -1.59114184789698648E-20  4.41983846638051784E-21  1.47461883378331817E-20
U       4.95222809983089888E-21  2.41082098166210067E-22 -5.54488825782283136E-21
U       4.00296733830144647E-21 -1.65241688118089817E-21  3.18429271327869114E-20
O      -8.30226475559885918E-21 -5.38416685904535811E-21 -7.48359013057610430E-21
O      -2.26014467030821908E-21  1.13509487886590563E-20 -2.67400227216021310E-20
O      -1.87441331324228334E-20  3.37514937432694057E-21 -1.91986733383403745E-20
O      -5.59762496679668962E-21  1.36613188960852359E-21 -1.97511531466379373E-20
O      -2.48163884799842474E-20  1.96883713502404904E-21 -2.07933309668356176E-21
O       3.57605112279878270E-21 -1.72373700188840205E-20 -1.20829845346533298E-20
O       2.41082098166210067E-22 -2.85280482830015231E-21 -7.27264329468067127E-21
O       7.63426644192998590E-21  1.02861695217582957E-20 -7.83516819040182653E-21
U      -5.16317493572633191E-21  8.85976710760822049E-21  6.83065944804261889E-21
U       2.31037010742617998E-21 -5.82615070568340974E-21  6.95120049712572326E-21
U       1.25764494543372909E-20  4.70110091424109622E-21  4.82164196332420059E-21
U      -1.45051062396669729E-20 -1.08486944174794525E-20  3.09790496143579915E-20
O      -7.43336469345814377E-21  4.94218301240730647E-21 -9.04057868123287630E-21
O      -9.22139025485753512E-21 -5.66542930690593649E-21 -3.38519446175053267E-20
O      -9.84418567512024482E-21  1.58712381292754959E-21 -3.46203938054101241E-20
O       7.65435661677716921E-21  9.58301340210685126E-21 -2.22398235558328769E-20
O      -1.69159272213290725E-20 -6.58957734987640863E-21 -9.24148042970471768E-22
O       3.61623147249315082E-21  7.75480749101309028E-21 -2.18782004085835622E-20
O      -2.47109150620365324E-21 -6.91102014743135514E-21  6.46903630079330275E-21
O       1.05674319696188756E-20  1.44247455402782367E-20  9.80400532542587670E-21
U      -1.72775503685783878E-21  6.99138084682009289E-21 -7.47354504315251190E-21
U      -1.02861695217582957E-20  2.61172273013394243E-21  4.21893671790867571E-21
U       7.63426644192998590E-21 -1.59917791783585981E-20 -3.29478867493820432E-21
U      -6.99138084682009289E-21  9.14102955546879925E-22 -2.00901748471841716E-21
O      -2.04919783441278567E-21 -1.24358182304070032E-20 -9.32184112909345468E-21
O      -1.07532660869553268E-20  4.58055986515799109E-21 -2.81689364076081069E-20
O       5.80606053083622568E-21 -8.68900062140715408E-21 -2.90164906589736879E-20
O       5.82615070568340918E-22  1.36412287212380530E-20 -1.00432039697001625E-20
O      -5.84624088053059380E-21 -1.60721398777473366E-21 -5.82615070568340974E-21
O      -2.77746667262321188E-21 -8.83967693276103455E-22 -5.14308476087914785E-21
O       7.73471731616590546E-21 -8.77940640821948273E-21 -3.40528463659771704E-21
O      -4.01301242572503813E-21  2.06928800925996973E-21  6.63980278699436841E-21
U       7.87534854009619616E-21 -8.59859483459482542E-21 -4.01803496943683414E-22
U       1.81615180618544919E-20 -1.59114184789698648E-20  1.54292542826374443E-20
U       3.79704304611780889E-21  5.70560965660030461E-21 -9.16111973031598218E-21
U       4.94218301240730647E-21  1.16523014113668184E-21  1.51078114850824963E-20
O       1.71268740572245055E-20 -5.82615070568340974E-21 -6.75029874865388113E-21
O       1.52685328838599703E-21 -7.86781472452850148E-21 -2.79152979501624050E-20
O       2.86284991572374443E-22 -1.53488935832487050E-20 -2.84602439428922732E-20
O       1.01656284726751913E-20 -3.07379675161917812E-21 -2.61574076510337894E-20
O      -8.68900062140715408E-21  6.54939700018204051E-21  8.55841448490045729E-21
O       3.67650199703470301E-21  4.74128126393546434E-21 -2.49720873350499244E-20
O      -2.31037010742617942E-22  1.36751308912926745E-20 -3.25460832524383581E-21
O       2.61172273013394243E-21 -3.25460832524383581E-21 -5.78597035598904086E-21
U      -1.11299568653400308E-20  4.01803496943683433E-21 -1.34202367979190260E-20
U      -1.38722657319806708E-20  2.26617172276237459E-20  1.64739433746910216E-21
U       6.02705245415525074E-22 -1.36613188960852359E-21 -2.49118168105083730E-20
U       7.63426644192998515E-22  4.01803496943683426E-23  2.41885705160097437E-20
O       1.09491452917153743E-21 -1.67853410848223757E-20  8.49814396035890435E-21
O       3.93767427004809808E-21 -1.65844393363505335E-20 -2.86536118757964236E-20
O      -2.02308060711144586E-20 -1.95879204760045656E-20 -3.18492053124266595E-20
O       8.83967693276103455E-22  1.83825099851735150E-21 -2.13206980565742009E-20
O      -3.13406727616073069E-21  9.78391515057869188E-21 -5.66542930690593649E-21
O      -2.31037010742617998E-21 -2.05723390435165914E-20 -3.05816408431621279E-20
O       2.00901748471841716E-21 -1.77295793026400311E-21 -1.23855927932890411E-20
O       1.58511479544283104E-20 -6.62975769957077638E-22  7.03156119651445951E-21
U      -5.74579000629467349E-21  1.84829608594094354E-21 -5.06272406149041160E-21
U      -5.86633105537777786E-21 -1.60721398777473370E-22  3.55596094795159848E-20
U       6.83065944804261889E-21 -3.21442797554946741E-22  6.58957734987640863E-21
U       7.23246294498630108E-22  1.48667293869162875E-20 -1.87642233072700152E-20
O       9.48256252787092869E-21  4.80029615254906842E-21 -3.17424762585509919E-21
O       1.04720036390947500E-20 -1.22600292004941413E-20 -1.30033656698399554E-20
O      -2.75235395406423162E-21 -1.15116701874365303E-20 -2.67902481587200915E-20
O       1.51078114850824963E-20  1.85256524809597057E-20 -1.85934568210689518E-20
O       3.19433780070228325E-21 -7.41327451861095896E-21  1.60721398777473370E-22
O       2.09942327153074582E-21 -4.33947776699178083E-21 -2.85380933704251192E-20
O      -1.44197229965664382E-20  1.64965448213941026E-20 -6.75029874865388113E-21
O       4.58809368072568577E-21 -9.22139025485753512E-21 -4.59060495258158350E-21
U       1.68757468716347028E-21 -3.29478867493820432E-21 -6.42885595109893463E-21
U      -1.04468909205357697E-20 -1.87139978701520547E-20 -1.60721398777473373E-20
U      -6.31835998943942191E-21  2.12654500757444480E-20  1.26969905034203968E-20
U      -8.81958675791385086E-21 -4.90200266271293835E-21 -2.01705355465729071E-20
O       6.35854033913379003E-21  8.57850465974764211E-21  9.39215674105860153E-21
O      -3.98789970716605786E-21 -3.76690778384703242E-21 -2.34954594837818902E-20
O       1.95125823203276270E-21  2.31388588802443710E-20 -1.76843764092338668E-20
O      -1.17527522856027405E-21 -4.82164196332420059E-21 -7.66942424791255707E-21
O       3.70161471559368403E-21  5.26864835367404918E-21  6.26813455232146137E-21
O      -9.64328392664840269E-22 -1.03414175025880517E-20 -2.09942327153074575E-20
O       1.47863686875275483E-20  5.30380615965662110E-21  2.12955853380152229E-21
O      -6.97129067197290808E-21  1.61675682082714629E-20 -3.26465341266742785E-21
U       5.91655649249573915E-21  2.58761452031732110E-20  1.12504979144231352E-21
U      -1.60872075088827237E-20  2.51629439960981757E-21 -4.00196282955908693E-20
U       8.79949658306666755E-21  3.41532972402130944E-21 -7.07174154620882764E-21
U      -3.65641182218751970E-21 -1.22951870064767125E-20 -1.12103175647287686E-20
O      -4.90200266271293835E-21  6.46903630079330275E-21  1.21746459573936081E-20
O      -1.07482435432435314E-20  1.56301560311092864E-20 -7.68951442275974189E-21
O      -8.03606993887366852E-23  2.95928275499022904E-20 -2.92990087427622189E-20
O       1.73780012428143082E-21  1.10495961659512946E-20 -7.81758928741054094E-21
O       1.50676311353881297E-20  1.13107684389646882E-20 -1.25463141920665152E-20
O      -6.42885595109893481E-22  8.20181388136293812E-21 -2.29957163844581811E-20
O       1.23353673561710806E-20 -3.17424762585509919E-21 -7.11192189590319727E-21
O      -6.16768367808554031E-21  1.33838233560085037E-20 -6.91102014743135514E-21
U      -7.19228259529193352E-21  3.93767427004809808E-21  2.25009958288462704E-21
U      -8.03606993887366852E-23 -5.94669175476651412E-21 -1.61123202274417039E-20
U      -1.02861695217582957E-20 -1.67351156477044151E-20  6.83065944804261889E-21
U      -2.97334587738325706E-21 -4.50019916576925409E-21  1.24559084052541865E-21
O      -1.99897239729482528E-20  1.69159272213290725E-20  2.46707347123421612E-20
O       4.47006390349847837E-21  1.36613188960852359E-21 -2.21343501378851604E-20
O      -5.94669175476651412E-21  6.34347270799840292E-21 -1.68606792404993165E-20
O       5.24353563511506892E-21  1.15719407119780817E-20 -2.43995173519051768E-20
O       2.35657750957470325E-20  1.18029777227207007E-21 -3.29478867493820432E-21
O      -3.14411236358432272E-21 -2.11951344637793026E-21 -1.99445210795420847E-20
O       6.06095462420987493E-21  3.13406727616073069E-21 -6.20786402777990919E-21
O      -1.69259723087526649E-21  2.05924292183637762E-20 -4.09839566882557133E-21
U      -2.81262447860578380E-21 -2.16572084852645383E-20 -1.75989931661333351E-20
U       3.93767427004809808E-21 -7.19228259529193352E-21  1.42137987043828006E-20
U       2.72221869179345552E-21 -2.16973888349589042E-21 -4.30733348723628649E-20
U       8.13149826939779427E-21 -3.97785461974246620E-21  1.94472892520742779E-20
O       3.61623147249315054E-22  8.27715203703987891E-21  9.96723799605924692E-21
O      -1.14513996628949789E-20  4.05821531913120245E-21  2.45501936632590584E-20
O       3.00599241150993201E-21  1.06779279312783876E-20 -7.89543871494337947E-21
O       9.94463654935616551E-22 -3.33496902463257282E-21  1.70967387949537298E-20
O       3.16922508214330298E-21  4.01803496943683414E-22  2.30534756371438378E-21
O      -2.09339621907659060E-20 -1.17326621107555557E-20  6.04714262900243593E-21
O      -1.01455382978280065E-20  6.85074962288980220E-21 -2.03413020327739743E-21
O       2.86284991572374471E-21  1.07683337180907162E-20  1.23554575310182662E-21
U       4.77141652620624081E-21  3.39021700546232918E-21 -1.80811573624657526E-20
U      -4.77141652620624119E-22  1.03263498714526638E-20 -5.68551948175312055E-21
U       3.05370657677199406E-21 -1.24559084052541865E-21  1.01254481229808232E-20
U      -1.38622206445570784E-21 -5.26864835367404918E-21  4.31938759214459696E-22
O       6.87083979773698701E-21  2.08536014913771698E-20 -5.46076065065024777E-21
O      -1.15317603622837151E-20  9.86427584996742813E-21  1.49069097366106542E-20
O       1.57908774298867589E-20 -6.83065944804261795E-22  1.28175315525035026E-20
O      -6.22795420262709325E-21  6.62975769957077751E-21 -2.73226377921704718E-21
O      -1.93669285526855416E-20 -1.04569360079593606E-20 -1.25387803764988205E-20
O      -6.28822472716864544E-21 -4.82164196332420135E-22 -6.42885595109893481E-22
O      -8.35751273642861516E-21  2.61172273013394224E-22 -1.92564325910260297E-20
O       1.21143754328520552E-20  8.17670116280395785E-21  3.32241266535308231E-21
U       5.34398650935098923E-21 -7.49363521799969671E-21 -1.65944844237741275E-20
U       1.44649258899726022E-21 -8.55841448490045729E-21  2.28827091509427699E-20
U      -6.18777385293272512E-21  2.59966862522563169E-20 -2.67199325467549492E-20
U      -2.00901748471841716E-21  1.59465762849524360E-20  3.18831074824812811E-20
O      -9.52274287756529832E-21 -6.64984787441796157E-21  9.39215674105860153E-21
O      -1.05473417947716893E-21  4.52028934061643815E-21  1.79405261385354649E-20
O      -2.00901748471841713E-23 -2.97334587738325706E-21  7.83516819040182653E-21
O       1.50073606108465752E-20 -9.40220182848219244E-21  4.60065004000517515E-21
O      -1.50475409605409449E-20 -8.62873009686560114E-21 -6.12248078467937673E-21
O      -3.86233611437115728E-21 -1.53890739329430747E-20  1.06477926690076103E-20
O       4.87186740044216150E-22 -8.51823413520608917E-21 -5.76588018114185755E-21
O       7.95570923948493241E-21  9.32184112909345468E-21  3.14913490729611892E-21
U      -5.70560965660030461E-21 -4.37965811668614971E-21  7.95570923948493241E-21
U      -4.82164196332420059E-21  1.18933835095330282E-20  8.21688151249832597E-21
U      -9.49260761529452109E-21  9.00039833153850818E-21  1.24960887549485546E-20
U      -3.36510428690334853E-21  1.60922300525945221E-20 -1.11400019527636233E-20
O       9.49260761529452222E-22 -1.84678932282740505E-20  8.69402316511894953E-21
O       6.63980278699436841E-21 -1.46721058180841905E-20  8.15661098795677454E-21
O       6.36356288284558623E-21  3.71668234672907189E-21  2.07933309668356183E-20
O      -1.00802452295746581E-20  1.92112296976198661E-21  8.03606993887366828E-22
O       6.84321580732210902E-21 -7.07174154620882764E-21 -9.80400532542587670E-21
O      -1.72775503685783878E-21 -1.14513996628949777E-21  3.75686269642344001E-21
O      -3.05370657677199406E-21 -4.08583930954608120E-21 -5.99189464817267920E-21
O       1.63734925004550975E-20  4.96227318725449054E-21  6.90599760371955912E-22
U       3.07379675161917812E-21 -6.02705245415525074E-22 -3.17424762585509919E-21
U      -4.47508644721027457E-21 -1.15719407119780817E-20  8.06118265743264892E-21
U      -1.12504979144231352E-21  7.15210224559756539E-21 -2.10946835895433815E-20
U      -8.35751273642861516E-21 -2.08536014913771698E-20  2.70112400820391184E-20
O       1.04468909205357690E-21  1.16020759742488582E-21  1.37467021391857695E-20
O       9.24148042970471768E-22 -9.82409550027306001E-21  8.09634046341522160E-21
O       1.15317603622837151E-20  1.06678828438547951E-20 -2.00901748471841707E-22
O      -1.14513996628949777E-21  2.62026105444399545E-20 -1.46658276384444454E-20
O       6.82061436061902648E-21 -2.01303551968785405E-20  7.81507801555464322E-21
O       2.41082098166210067E-22 -4.21893671790867571E-22 -4.80155178847701653E-21
O      -1.77597145649108076E-20  5.50973045184025944E-21 -8.51823413520608917E-21
O      -8.43787343581735141E-22  4.21893671790867571E-21  6.88088488516057904E-22
U      -5.70560965660030461E-21  8.03606993887366852E-23  1.82820591109375977E-20
U      -5.26362580996225298E-21 -1.71971896691896508E-20 -2.45602387506826523E-20
U       9.80400532542587670E-21  3.21442797554946731E-21 -8.03606993887366866E-21
U      -4.58055986515799109E-21 -7.35300399406940602E-21  1.74784521170502322E-21
O       8.51823413520608917E-21 -3.15666872286381323E-21  1.29908093105604653E-20
O      -4.22898180533226811E-21 -1.56828927400831432E-20  4.17875636821430758E-21
O      -5.72569983144748943E-21  4.74128126393546434E-21  1.58712381292754959E-21
O      -5.54488825782283136E-21  1.89914934102287873E-20  1.07683337180907162E-20
O      -4.84173213817138541E-21  7.31282364437503940E-21  3.67022381739495794E-21
O      -1.12630542737026269E-20  0.00000000000000000E+00 -1.86035019084925427E-20
O      -7.53381556769406343E-23  7.42834214974634832E-21  3.58107366651057815E-21
O       2.31991294047859224E-20  9.08075903092724593E-21  7.27766583839246672E-21
U       1.60721398777473366E-21  8.83967693276103455E-22 -2.69208342952267905E-21
U       2.27420779270124822E-20  1.93970638149563174E-20  3.12402218873713911E-20
U      -2.01404002843021314E-20 -1.75035648356092095E-20 -3.44948302126152227E-20
U       4.47006390349847837E-22 -5.62524895721156761E-21  2.76239904148782387E-20
O      -1.68456116093639271E-20 -2.08937818410715379E-21  2.22548911869682662E-20
O      -3.61623147249315054E-22 -1.14915800125893470E-20  5.10290441118477973E-21
O      -2.22247559246974905E-21  2.46104641878006130E-22  2.33046028227336367E-21
O       3.26465341266742785E-21  1.12906782641175033E-20 -5.36407668419817404E-21
O      -3.83471212395627854E-21 -7.20232768271552442E-21 -1.59968017220703965E-20
O       7.36304908149299842E-21  1.16723915862140043E-20  1.96883713502404904E-21
O       9.26157060455190325E-21 -5.51475299555205489E-21  1.96130331945635473E-21
O      -1.05272516199245060E-20 -1.37014992457796044E-20  3.55596094795159863E-21
U      -1.01254481229808232E-20  9.56292322725966644E-21  3.77695287127062407E-21
U       1.44950611522433790E-20 -1.88696967252177318E-20  1.98641603801533485E-20
U      -1.17326621107555557E-20 -1.20139245586161341E-20 -1.04468909205357690E-21
U       6.06723280384962000E-21 -1.92865678532968054E-21 -8.75931623337229942E-21
O      -3.73677252157625595E-21  1.75286775541681898E-20  7.65937916048896617E-21
O      -1.16723915862140043E-20  7.03156119651445951E-21  1.40631223930289190E-21
O      -1.25061338423721470E-20 -4.88191248786575353E-21 -8.03606993887366852E-23
O       1.88445840066587515E-20  2.89298517799452043E-21 -9.60310357695403306E-21
O       7.71462714131872215E-21 -1.41987310732474143E-20 -7.88539362751978687E-22
O       9.08075903092724593E-21  3.76816341977498053E-21  3.33496902463257282E-21
O       5.68551948175312055E-21  1.08386493300558601E-20  1.72474151063076114E-20
O      -5.70560965660030461E-21 -8.46800869808812713E-21 -5.23349054769147651E-21
U      -1.82016984115488585E-20 -8.19679133765114266E-21 -3.13406727616073061E-20
U      -1.82820591109375985E-21  1.62529514513719976E-20  3.49267689718296797E-20
U       5.22344546026788485E-21 -6.65989296184155323E-21  3.57605112279878270E-21
U       1.08486944174794525E-20 -7.23246294498630108E-22 -1.67752959973987825E-21
O      -9.58301340210685126E-21 -8.96021798184414005E-21  1.31339518063466533E-21
O      -6.65738168998565400E-21  5.91655649249573915E-21 -9.48256252787092869E-21
O      -1.47662785126803665E-20 -8.67895553398356167E-21  2.37064063196773217E-21
O       1.12504979144231352E-20  1.52685328838599703E-21 -2.56551532798541871E-20
O       6.10741315354398812E-21  3.24205196596434568E-21 -1.58913283041226800E-20
O       9.57296831468325734E-21  2.24507703917283122E-21 -1.60721398777473370E-22
O       9.31179604166986378E-21  5.30380615965662110E-21  1.10546187096630900E-20
O      -2.86335217009492418E-20 -1.25764494543372909E-20 -4.65087547712313569E-21
U       1.77597145649108076E-20  1.60922300525945221E-20  2.73477505107294558E-20
U       9.64328392664840269E-22 -1.06477926690076103E-20  8.67895553398356167E-21
U      -4.57051477773439962E-22  2.47510954117309005E-20  3.83270310647156005E-20
U       3.16420253843150725E-22 -2.46004191003770159E-20  8.11643063826240491E-21
O      -4.60065004000517515E-21 -4.72119108908828028E-21  7.63426644192998590E-21
O       9.48256252787092869E-21 -1.88044036569643849E-20  2.82066054854465773E-20
O      -4.87688994415395808E-21 -1.82820591109375985E-21  2.59062804654439897E-20
O       3.15917999471971095E-21 -9.24148042970471994E-21  2.88796263428272460E-20
O       1.50324733294055585E-20  5.89646631764855433E-21  2.11348639392377512E-20
O       5.98687210446088299E-21  1.94472892520742779E-20  2.02107158962672768E-20
O      -6.30831490201582950E-21 -8.21688151249832597E-21  1.89048545312003029E-20
O      -1.39827616936401858E-20 -5.50470790812846323E-21  5.26362580996225298E-21
U       7.73471731616590640E-22  3.83973466766807474E-21 -5.98184956074908754E-21
U      -7.93561906463774910E-21  4.41983846638051727E-22 -1.45452865893613425E-20
U      -6.38867560140456650E-21  8.23697168734551079E-21 -2.72121418305109576E-20
U       6.87083979773698701E-21  6.96124558454931567E-21 -9.32184112909345468E-21
O       1.28978922518922374E-20 -6.42885595109893463E-21  4.48010899092207003E-21
O      -2.27018975773181148E-21 -6.32840507686301431E-21  2.15366674361814324E-20
O      -1.52283525341656022E-20  4.21893671790867571E-21  2.68806539455324217E-20
O       1.52685328838599703E-21 -5.68551948175312055E-21  2.09741425404602757E-20
O       9.64328392664840119E-21  1.50676311353881297E-20  8.41778326097016810E-21
O       4.35956794183896490E-21  6.83065944804261889E-21  3.86133160562879804E-20
O       6.69002822411232819E-21 -5.50470790812846323E-21  1.90856661048249633E-20
O      -2.98941801726100476E-20 -8.35751273642861516E-21  6.02705245415525168E-23
U      -5.82615070568340974E-21  2.20991923319025864E-22  3.12402218873713911E-20
U      -6.66993804926514563E-21  1.32595153991415528E-21 -1.67953861722459666E-20
U      -2.81262447860578380E-21 -1.16924817610611876E-20  7.27264329468067127E-21
U       1.61525005771360736E-20 -1.07984689803614919E-20 -1.67953861722459666E-20
O       1.98089123993235955E-20 -2.61172273013394224E-22  9.64328392664840269E-22
O      -6.71890785045515730E-21 -6.56948717502922457E-21  1.91559817167901056E-20
O      -4.43992864122770190E-21  1.62730416262191794E-20  2.88896714302508369E-20
O       4.01803496943683414E-22 -1.60520497029001525E-20  8.92003763214977343E-21
O       3.03361640192481000E-21 -7.35300399406940602E-21  1.26969905034203968E-20
O      -2.02910765956560123E-21  2.62980388749640801E-20  2.60368666019506865E-20
O      -1.66434542249641384E-20 -4.54037951546362297E-21  3.19433780070228325E-21
O      -1.52961568742748483E-20 -3.41532972402130897E-22 -8.73922605852511461E-21
U      -5.30380615965662110E-21  2.81262447860578380E-22 -1.09491452917153743E-21
U       1.22148263070879762E-20  1.60721398777473366E-21  2.60368666019506865E-20
U       3.96780953231887398E-22 -1.38220402948627103E-20 -2.34050536969695608E-21
U      -1.23655026184418578E-20  2.85280482830015231E-21  6.50921665048767163E-21
O      -2.35130383867731758E-20 -6.44392358223432324E-21 -5.22344546026788485E-21
O      -1.66648000357392698E-20  3.39021700546232918E-21  1.42941594037715399E-20
O      -1.45653767642085243E-21  2.99343605223044150E-21  2.06828350051761034E-20
O      -2.59163255528675799E-21  2.07832858794120244E-20  2.40278491172322682E-20
O       3.01936493414258894E-20  1.18532031598386616E-20 -7.47354504315251190E-21
O       3.89749392035372920E-21  6.14759350323835625E-21  2.46305543626477946E-20
O       8.71913588367792979E-21  1.52383976215891961E-20  1.21143754328520552E-20
O      -8.47805378551172104E-21 -9.12093938062161406E-21 -1.48466392120691027E-20
U       1.97385967873584487E-21  1.22349164819351596E-20 -8.00091213289109749E-21
U       4.31938759214459696E-22 -1.73579110679671233E-20 -8.35751273642861516E-21
U       1.49470900863050238E-20 -1.84026001600207006E-20  2.44999682261410978E-20
U       8.87985728245540380E-21 -8.39769308612298329E-21  9.64328392664840119E-21
O      -2.42890213902456618E-20 -1.29707191357132804E-20 -6.75029874865388113E-21
O      -7.11192189590319727E-21 -3.92260663891270947E-21  1.95477401263101989E-20
O      -1.12103175647287686E-20  1.62730416262191791E-21  2.51930792583689514E-20
O       1.76090382535569260E-20  1.83197281887760644E-21  3.03863894563660560E-20
O       7.95570923948493241E-21 -1.20541049083105015E-21  4.13857601851993946E-21
O       1.74784521170502322E-21  8.13652081310958972E-21  1.35005974973077623E-20
O       1.15518505371308999E-20  1.25117842040479173E-20  1.85834117336453579E-20
O       2.31037010742617998E-21 -1.37818599451683437E-20 -7.35300399406940602E-21
U      -1.96080106508517534E-20 -5.30380615965662110E-21 -3.75987622265051728E-20
U       6.95120049712572326E-21 -1.66346647734684941E-20  2.49118168105083730E-21
U       1.36613188960852359E-21  7.87534854009619616E-21 -5.44443738358691105E-21
U       8.83967693276103455E-22  1.64739433746910216E-21  1.31791546997528173E-20
O      -5.82615070568340918E-22 -6.16266113437374486E-21 -7.09183172105601245E-21
O      -1.56552687496682667E-20 -7.95570923948493241E-21  2.94923766756663633E-20
O       1.03062596966054790E-20  3.15415745100791475E-21  1.83222394606319644E-20
O       1.12304077395759519E-20  1.36261610901026666E-20  2.75637198903366873E-20
O       8.03606993887366866E-21 -3.07379675161917812E-21  7.81507801555464322E-21
O       1.36763865272206241E-20 -1.36412287212380530E-20  2.98138194732213083E-20
O       7.96575432690852331E-21  9.99737325833002264E-21  3.13406727616073069E-21
O      -1.08386493300558601E-20 -7.99588958917929903E-21 -1.44448357151254185E-20
U      -3.77695287127062407E-21  2.49921775098971092E-20 -6.12750332839117218E-21
U      -1.12504979144231352E-21 -1.81012475373129404E-20  6.99138084682009289E-21
U       1.13760615072180366E-20  1.42640241415007615E-21 -3.67348847080762529E-20
U       2.02810315082324221E-20  4.98236336210167460E-21 -9.80400532542587670E-21
O       6.84196017139415940E-21  4.93213792498371407E-21 -4.31938759214459677E-21
O       9.28166077939908656E-21 -1.17326621107555557E-20  2.11750442889321148E-20
O       6.19279639664452057E-21 -1.33599662733774731E-21  3.39925758414356174E-20
O       6.91604269114315059E-21 -4.69105582681750381E-21  3.45751909120039620E-20
O      -2.12177359104823836E-20 -7.04411755579394965E-21  4.25911706760304458E-21
O       1.57707872550395737E-21 -1.08800853156781778E-20  2.08937818410715394E-20
O      -1.78400752642995469E-20 -3.49569042341004645E-21 -4.52028934061643815E-21
O       2.07029251800232882E-20  2.70828113299322134E-20 -5.14308476087914785E-21
U      -4.77141652620624081E-21 -7.55390574254124815E-21 -2.56451081924305962E-20
U       1.35056200410195592E-20  1.12354302832877489E-20  1.61525005771360736E-20
U       1.04870712702301378E-20  2.06175419369227565E-20  6.56948717502922457E-21
U      -1.16523014113668195E-20 -2.16973888349589042E-21 -1.12504979144231352E-21
O       1.00450874235920854E-20  1.88847643563531204E-21 -3.87740374550654514E-21
O       2.00901748471841716E-21 -5.06272406149041160E-21  1.85231412091038065E-20
O       1.66547549483156789E-20  4.91204775013653000E-21  1.54192091952138504E-20
O       1.13710389635062411E-20  4.05821531913120245E-21  2.83673268842240498E-20
O      -7.47354504315251190E-21 -1.90304181239952073E-20  3.37514937432694057E-21
O       1.16523014113668184E-21 -1.29581627764337903E-20  2.48214110236960458E-20
O       9.64328392664840269E-22  1.28577119021978696E-21  5.98687210446088299E-21
O       2.90303026541811276E-20  1.66949352980100485E-20 -3.41532972402130897E-22
U      -3.65641182218751970E-21 -1.04468909205357690E-21  8.45796361066453623E-21
U      -2.81262447860578380E-21 -8.05616011372085197E-21 -4.41983846638051784E-21
U       5.46452755843409436E-21  1.25412916483547197E-20 -9.89441111223820535E-22
U      -1.38220402948627103E-20 -2.49118168105083730E-21  2.41082098166210067E-22
O      -4.01803496943683433E-21  1.26568101537260286E-20 -4.82164196332420059E-21
O       1.63232670633371392E-21 -8.88990236987899621E-21  2.84175523213420103E-20
O      -2.53136203074520580E-21  2.42212170501364157E-21  2.25713114408114158E-20
O       5.30380615965662110E-21 -4.86182231301856947E-21  4.89798462774350139E-20
O      -2.03714372950447523E-20 -2.91458211595524381E-20  1.20741950831576871E-20
O      -1.04770261828065454E-20 -1.65191462680971836E-20  1.86436822581869094E-20
O      -1.02108313660813549E-20 -2.38068571939132458E-21  1.84829608594094354E-21
O       9.58301340210685126E-21  5.88893250208086041E-21 -5.70560965660030461E-21
